<?xml version='1.0' encoding='UTF-8'?>
<!-- This file was generated by dvisvgm 2.1.3 -->
<svg height='12.9514pt' version='1.1' viewBox='56.4133 56.0399 80.9777 12.9514' width='80.9777pt' xmlns='http://www.w3.org/2000/svg' xmlns:xlink='http://www.w3.org/1999/xlink'>
<defs>
<path d='M3.35442 -4.88269H4.81793C4.46824 -3.43213 4.24807 -2.48667 4.24807 -1.45056C4.24807 -1.26924 4.24807 0.129514 4.77908 0.129514C5.05106 0.129514 5.28418 -0.116563 5.28418 -0.336737C5.28418 -0.401494 5.28418 -0.427397 5.19352 -0.621669C4.84384 -1.51532 4.84384 -2.62914 4.84384 -2.7198C4.84384 -2.79751 4.84384 -3.71706 5.11582 -4.88269H6.56638C6.73474 -4.88269 7.16214 -4.88269 7.16214 -5.29714C7.16214 -5.58207 6.91606 -5.58207 6.68294 -5.58207H2.42192C2.12403 -5.58207 1.68369 -5.58207 1.08792 -4.94745C0.751183 -4.57186 0.336737 -3.88543 0.336737 -3.80772S0.401494 -3.70411 0.479203 -3.70411C0.569863 -3.70411 0.582814 -3.74296 0.647572 -3.82067C1.32105 -4.88269 1.99452 -4.88269 2.31831 -4.88269H3.05654C2.77161 -3.91133 2.44782 -2.78456 1.3858 -0.518057C1.28219 -0.310834 1.28219 -0.284932 1.28219 -0.207223C1.28219 0.0647572 1.51532 0.129514 1.63188 0.129514C2.00747 0.129514 2.11108 -0.207223 2.2665 -0.751183C2.47372 -1.41171 2.47372 -1.43761 2.60324 -1.95567L3.35442 -4.88269Z' id='g0-25'/>
<path d='M2.38306 -0.621669C2.38306 -0.99726 2.07223 -1.25629 1.76139 -1.25629C1.3858 -1.25629 1.12677 -0.945455 1.12677 -0.63462C1.12677 -0.259029 1.43761 0 1.74844 0C2.12403 0 2.38306 -0.310834 2.38306 -0.621669Z' id='g0-58'/>
<path d='M5.51731 -0.0777086C7.74496 -0.971357 9.40274 -3.32852 9.40274 -5.67273C9.40274 -7.80971 8.00399 -9.11781 6.19078 -9.11781C3.41918 -9.11781 0.621669 -6.13898 0.621669 -3.1472C0.621669 -1.11382 1.96862 0.27198 3.84658 0.27198C4.28692 0.27198 4.71432 0.207223 5.12877 0.0777086C5.05106 0.854795 5.05106 0.919552 5.05106 1.16563C5.05106 1.54122 5.05106 2.51258 6.08717 2.51258C7.62839 2.51258 8.19826 0.09066 8.19826 0.0129514S8.14645 -0.116563 8.08169 -0.116563C8.00399 -0.116563 7.97808 -0.0518057 7.93923 0.09066C7.6543 0.9066 6.98082 1.37285 6.41096 1.37285C5.75044 1.37285 5.58207 0.919552 5.51731 -0.0777086ZM3.18605 -0.142466C2.16289 -0.492154 1.67073 -1.56712 1.67073 -2.75866C1.67073 -3.66526 2.00747 -5.3878 2.86227 -6.69589C3.82067 -8.17235 5.10286 -8.83288 6.11308 -8.83288C7.46002 -8.83288 8.36663 -7.74496 8.36663 -6.06127C8.36663 -5.10286 7.91333 -1.89091 5.47846 -0.466252C5.4137 -1.12677 5.23238 -1.90386 4.37758 -1.90386C3.67821 -1.90386 3.08244 -1.20448 3.08244 -0.569863C3.08244 -0.427397 3.13425 -0.233126 3.18605 -0.142466ZM5.15467 -0.297883C4.68842 -0.09066 4.28692 -0.0129514 3.92428 -0.0129514C3.79477 -0.0129514 3.34147 -0.0129514 3.34147 -0.582814C3.34147 -1.04907 3.79477 -1.64483 4.37758 -1.64483C5.02516 -1.64483 5.16762 -1.20448 5.16762 -0.556912C5.16762 -0.479203 5.16762 -0.375592 5.15467 -0.297883Z' id='g0-81'/>
<path d='M2.60324 -5.20648H3.79477C4.04085 -5.20648 4.17036 -5.20648 4.17036 -5.4396C4.17036 -5.58207 4.09265 -5.58207 3.83362 -5.58207H2.6939L3.1731 -7.47298C3.22491 -7.6543 3.22491 -7.6802 3.22491 -7.77086C3.22491 -7.97808 3.05654 -8.09465 2.88817 -8.09465C2.78456 -8.09465 2.48667 -8.05579 2.38306 -7.64134L1.87796 -5.58207H0.660523C0.401494 -5.58207 0.284932 -5.58207 0.284932 -5.33599C0.284932 -5.20648 0.375592 -5.20648 0.621669 -5.20648H1.77435L0.919552 -1.7873C0.81594 -1.334 0.777086 -1.20448 0.777086 -1.03611C0.777086 -0.427397 1.20448 0.129514 1.92976 0.129514C3.23786 0.129514 3.93724 -1.76139 3.93724 -1.85205C3.93724 -1.92976 3.88543 -1.96862 3.80772 -1.96862C3.78182 -1.96862 3.73001 -1.96862 3.70411 -1.91681C3.69116 -1.90386 3.67821 -1.89091 3.58755 -1.68369C3.31557 -1.03611 2.7198 -0.129514 1.96862 -0.129514C1.58007 -0.129514 1.55417 -0.4533 1.55417 -0.738232C1.55417 -0.751183 1.55417 -0.99726 1.59303 -1.15268L2.60324 -5.20648Z' id='g0-116'/>
<path d='M4.20922 3.1472C4.20922 3.10834 4.20922 3.08244 3.98904 2.86227C2.6939 1.55417 1.96862 -0.582814 1.96862 -3.22491C1.96862 -5.73748 2.57733 -7.90037 4.0797 -9.42864C4.20922 -9.54521 4.20922 -9.57111 4.20922 -9.60996C4.20922 -9.68767 4.14446 -9.71357 4.09265 -9.71357C3.92428 -9.71357 2.86227 -8.78107 2.22765 -7.51183C1.56712 -6.20374 1.26924 -4.81793 1.26924 -3.22491C1.26924 -2.07223 1.45056 -0.531009 2.12403 0.854795C2.88817 2.40897 3.95019 3.25081 4.09265 3.25081C4.14446 3.25081 4.20922 3.22491 4.20922 3.1472Z' id='g1-40'/>
<path d='M3.6523 -3.22491C3.6523 -4.20922 3.52279 -5.81519 2.79751 -7.31756C2.03337 -8.87173 0.971357 -9.71357 0.828892 -9.71357C0.777086 -9.71357 0.712329 -9.68767 0.712329 -9.60996C0.712329 -9.57111 0.712329 -9.54521 0.932503 -9.32503C2.22765 -8.01694 2.95293 -5.87995 2.95293 -3.23786C2.95293 -0.72528 2.34421 1.43761 0.841843 2.96588C0.712329 3.08244 0.712329 3.10834 0.712329 3.1472C0.712329 3.22491 0.777086 3.25081 0.828892 3.25081C0.99726 3.25081 2.05928 2.31831 2.6939 1.04907C3.35442 -0.27198 3.6523 -1.67073 3.6523 -3.22491Z' id='g1-41'/>
<path d='M1.65778 -7.42117C2.21469 -7.23985 2.668 -7.2269 2.81046 -7.2269C4.27397 -7.2269 5.20648 -8.30187 5.20648 -8.48319C5.20648 -8.53499 5.18057 -8.59975 5.10286 -8.59975C5.07696 -8.59975 5.05106 -8.59975 4.9345 -8.54795C4.20922 -8.23711 3.58755 -8.19826 3.25081 -8.19826C2.39601 -8.19826 1.7873 -8.45729 1.54122 -8.5609C1.45056 -8.59975 1.42466 -8.59975 1.41171 -8.59975C1.30809 -8.59975 1.30809 -8.52204 1.30809 -8.31482V-4.46824C1.30809 -4.23512 1.30809 -4.15741 1.46351 -4.15741C1.52827 -4.15741 1.54122 -4.17036 1.67073 -4.32578C2.03337 -4.85679 2.64209 -5.16762 3.28966 -5.16762C3.97609 -5.16762 4.31283 -4.533 4.41644 -4.31283C4.63661 -3.80772 4.64956 -3.1731 4.64956 -2.68095S4.64956 -1.45056 4.28692 -0.867746C4.00199 -0.401494 3.49689 -0.0777086 2.92702 -0.0777086C2.07223 -0.0777086 1.23039 -0.660523 0.99726 -1.60598C1.06202 -1.58007 1.13973 -1.56712 1.20448 -1.56712C1.42466 -1.56712 1.77435 -1.69664 1.77435 -2.13699C1.77435 -2.49963 1.52827 -2.70685 1.20448 -2.70685C0.971357 -2.70685 0.63462 -2.59029 0.63462 -2.08518C0.63462 -0.984309 1.51532 0.27198 2.95293 0.27198C4.41644 0.27198 5.69863 -0.958406 5.69863 -2.60324C5.69863 -4.14446 4.66252 -5.42665 3.30262 -5.42665C2.56438 -5.42665 1.99452 -5.10286 1.65778 -4.74022V-7.42117Z' id='g1-53'/>
<path d='M8.74222 -4.19626C8.92354 -4.19626 9.15666 -4.19626 9.15666 -4.42939C9.15666 -4.67547 8.93649 -4.67547 8.74222 -4.67547H1.11382C0.932503 -4.67547 0.699377 -4.67547 0.699377 -4.44234C0.699377 -4.19626 0.919552 -4.19626 1.11382 -4.19626H8.74222ZM8.74222 -1.7873C8.92354 -1.7873 9.15666 -1.7873 9.15666 -2.02042C9.15666 -2.2665 8.93649 -2.2665 8.74222 -2.2665H1.11382C0.932503 -2.2665 0.699377 -2.2665 0.699377 -2.03337C0.699377 -1.7873 0.919552 -1.7873 1.11382 -1.7873H8.74222Z' id='g1-61'/>
<path d='M2.25355 -7.97808C2.25355 -8.31482 1.98157 -8.6127 1.61893 -8.6127C1.28219 -8.6127 0.99726 -8.34072 0.99726 -7.99103C0.99726 -7.60249 1.30809 -7.35641 1.61893 -7.35641C2.02042 -7.35641 2.25355 -7.69315 2.25355 -7.97808ZM0.466252 -5.56912V-5.19352C1.29514 -5.19352 1.41171 -5.11582 1.41171 -4.4812V-0.958406C1.41171 -0.375592 1.26924 -0.375592 0.427397 -0.375592V0C0.790037 -0.0259029 1.41171 -0.0259029 1.7873 -0.0259029C1.92976 -0.0259029 2.68095 -0.0259029 3.1213 0V-0.375592C2.27945 -0.375592 2.22765 -0.440349 2.22765 -0.945455V-5.71158L0.466252 -5.56912Z' id='g1-105'/>
<path d='M5.76339 -3.1472C5.76339 -4.35168 5.76339 -4.71432 5.4655 -5.12877C5.08991 -5.63387 4.4812 -5.71158 4.04085 -5.71158C2.78456 -5.71158 2.2924 -4.63661 2.18879 -4.37758H2.17584V-5.71158L0.414446 -5.56912V-5.19352C1.29514 -5.19352 1.39875 -5.10286 1.39875 -4.46824V-0.958406C1.39875 -0.375592 1.25629 -0.375592 0.414446 -0.375592V0C0.751183 -0.0259029 1.45056 -0.0259029 1.8132 -0.0259029C2.18879 -0.0259029 2.88817 -0.0259029 3.22491 0V-0.375592C2.39601 -0.375592 2.2406 -0.375592 2.2406 -0.958406V-3.36737C2.2406 -4.72727 3.13425 -5.45255 3.93724 -5.45255S4.92154 -4.79203 4.92154 -4.00199V-0.958406C4.92154 -0.375592 4.77908 -0.375592 3.93724 -0.375592V0C4.27397 -0.0259029 4.97335 -0.0259029 5.33599 -0.0259029C5.71158 -0.0259029 6.41096 -0.0259029 6.7477 0V-0.375592C6.10012 -0.375592 5.77634 -0.375592 5.76339 -0.764134V-3.1472Z' id='g1-110'/>
<path d='M4.24807 -5.47846C4.24807 -5.71158 4.24807 -5.77634 4.11856 -5.77634C4.01494 -5.77634 3.76887 -5.49141 3.67821 -5.37484C3.27671 -5.69863 2.87522 -5.77634 2.46077 -5.77634C0.893649 -5.77634 0.427397 -4.92154 0.427397 -4.20922C0.427397 -4.06675 0.427397 -3.61345 0.919552 -3.16015C1.334 -2.79751 1.77435 -2.70685 2.37011 -2.59029C3.08244 -2.44782 3.25081 -2.40897 3.5746 -2.14994C3.80772 -1.95567 3.97609 -1.67073 3.97609 -1.30809C3.97609 -0.751183 3.6523 -0.129514 2.51258 -0.129514C1.65778 -0.129514 1.03611 -0.621669 0.751183 -1.91681C0.699377 -2.14994 0.699377 -2.16289 0.686426 -2.17584C0.660523 -2.22765 0.608717 -2.22765 0.569863 -2.22765C0.427397 -2.22765 0.427397 -2.16289 0.427397 -1.92976V-0.168369C0.427397 0.0647572 0.427397 0.129514 0.556912 0.129514C0.621669 0.129514 0.63462 0.116563 0.854795 -0.155417C0.919552 -0.246077 0.919552 -0.27198 1.11382 -0.479203C1.60598 0.129514 2.30535 0.129514 2.52553 0.129514C3.88543 0.129514 4.5589 -0.621669 4.5589 -1.64483C4.5589 -2.34421 4.13151 -2.75866 4.01494 -2.87522C3.54869 -3.27671 3.199 -3.35442 2.34421 -3.50984C1.95567 -3.58755 1.01021 -3.76887 1.01021 -4.54595C1.01021 -4.94745 1.28219 -5.54321 2.44782 -5.54321C3.85953 -5.54321 3.93724 -4.33873 3.96314 -3.93724C3.97609 -3.83362 4.06675 -3.83362 4.1056 -3.83362C4.24807 -3.83362 4.24807 -3.89838 4.24807 -4.13151V-5.47846Z' id='g1-115'/>
</defs>
<g id='page1'>
<use x='56.4133' xlink:href='#g0-81' y='65.7534'/>
<use x='70.0547' xlink:href='#g1-61' y='65.7534'/>
<use x='83.5156' xlink:href='#g1-115' y='65.7534'/>
<use x='88.5178' xlink:href='#g1-105' y='65.7534'/>
<use x='92.0404' xlink:href='#g1-110' y='65.7534'/>
<use x='99.0857' xlink:href='#g1-40' y='65.7534'/>
<use x='104.017' xlink:href='#g1-53' y='65.7534'/>
<use x='110.358' xlink:href='#g0-58' y='65.7534'/>
<use x='113.881' xlink:href='#g1-53' y='65.7534'/>
<use x='120.221' xlink:href='#g0-25' y='65.7534'/>
<use x='127.88' xlink:href='#g0-116' y='65.7534'/>
<use x='132.459' xlink:href='#g1-41' y='65.7534'/>
</g>
</svg>