<?xml version='1.0' encoding='UTF-8'?>
<!-- This file was generated by dvisvgm 2.1.3 -->
<svg height='3.02739pt' version='1.1' viewBox='56.4133 61.0019 12.9515 3.02739' width='12.9515pt' xmlns='http://www.w3.org/2000/svg' xmlns:xlink='http://www.w3.org/1999/xlink'>
<defs>
<path d='M10.8015 -2.97883C10.0892 -2.43487 9.73948 -1.90386 9.63587 -1.73549C9.05305 -0.841843 8.94944 -0.0259029 8.94944 -0.0129514C8.94944 0.142466 9.10486 0.142466 9.20847 0.142466C9.42864 0.142466 9.44159 0.116563 9.4934 -0.116563C9.79128 -1.3858 10.5554 -2.47372 12.0189 -3.06949C12.1743 -3.1213 12.2132 -3.1472 12.2132 -3.23786S12.1355 -3.36737 12.1096 -3.38032C11.5397 -3.6005 9.9726 -4.24807 9.48045 -6.42391C9.44159 -6.57933 9.42864 -6.61818 9.20847 -6.61818C9.10486 -6.61818 8.94944 -6.61818 8.94944 -6.46276C8.94944 -6.43686 9.066 -5.62092 9.60996 -4.75318C9.86899 -4.36463 10.2446 -3.91133 10.8015 -3.49689H1.17858C0.945455 -3.49689 0.712329 -3.49689 0.712329 -3.23786S0.945455 -2.97883 1.17858 -2.97883H10.8015Z' id='g0-33'/>
</defs>
<g id='page1'>
<use x='56.4133' xlink:href='#g0-33' y='65.7534'/>
</g>
</svg>