<?xml version='1.0' encoding='UTF-8'?>
<!-- This file was generated by dvisvgm 2.1.3 -->
<svg height='12.9514pt' version='1.1' viewBox='56.4133 56.0399 221.674 12.9514' width='221.674pt' xmlns='http://www.w3.org/2000/svg' xmlns:xlink='http://www.w3.org/1999/xlink'>
<defs>
<path d='M6.41096 -4.89564C6.50162 -5.08991 6.55342 -5.19352 7.36936 -5.19352V-5.75044C6.90311 -5.72453 6.87721 -5.72453 6.3462 -5.72453C5.99651 -5.72453 5.97061 -5.72453 5.23238 -5.75044V-5.19352C5.58207 -5.19352 5.867 -5.12877 5.867 -5.03811C5.867 -5.02516 5.867 -5.0122 5.80224 -4.88269L4.28692 -1.55417L2.61619 -5.19352H3.32852V-5.75044C3.03064 -5.72453 2.12403 -5.72453 1.77435 -5.72453C1.39875 -5.72453 0.647572 -5.72453 0.310834 -5.75044V-5.19352H1.12677L3.40623 -0.246077C3.52279 0 3.54869 0.0647572 3.84658 0.0647572C4.0538 0.0647572 4.15741 0.0388543 4.27397 -0.220174L6.41096 -4.89564Z' id='g0-118'/>
<path d='M4.2882 -2.90111C4.2882 -3.50853 4.261 -4.2882 3.94369 -4.96815C3.54479 -5.82035 2.85578 -6.03793 2.32995 -6.03793C1.78599 -6.03793 1.09698 -5.82035 0.698079 -4.95002C0.407968 -4.32446 0.362639 -3.59012 0.362639 -2.90111C0.362639 -2.31182 0.38077 -1.43242 0.770607 -0.716211C1.19671 0.0543958 1.90385 0.199451 2.32089 0.199451C2.91017 0.199451 3.58106 -0.0543958 3.96183 -0.888464C4.2338 -1.49588 4.2882 -2.17583 4.2882 -2.90111ZM2.32995 -0.0271979C2.05797 -0.0271979 1.40522 -0.154121 1.23297 -1.17858C1.14231 -1.71347 1.14231 -2.49314 1.14231 -3.0099C1.14231 -3.62639 1.14231 -4.3426 1.2511 -4.84122C1.43242 -5.64809 2.01264 -5.81128 2.32089 -5.81128C2.66539 -5.81128 3.23655 -5.62996 3.4088 -4.78683C3.50853 -4.2882 3.50853 -3.58106 3.50853 -3.0099C3.50853 -2.44781 3.50853 -1.68627 3.41787 -1.15138C3.22748 -0.117858 2.5566 -0.0271979 2.32995 -0.0271979Z' id='g2-48'/>
<path d='M2.75605 -5.79315C2.75605 -6.0198 2.74699 -6.03793 2.52034 -6.03793C1.95825 -5.45771 1.12418 -5.45771 0.843135 -5.45771V-5.17666C1.01539 -5.17666 1.56841 -5.17666 2.05797 -5.41238V-0.725277C2.05797 -0.389836 2.03078 -0.281045 1.18764 -0.281045H0.89753V0C1.22391 -0.0271979 2.03078 -0.0271979 2.40248 -0.0271979S3.59012 -0.0271979 3.9165 0V-0.281045H3.62639C2.78325 -0.281045 2.75605 -0.389836 2.75605 -0.725277V-5.79315Z' id='g2-49'/>
<path d='M4.18847 -1.60468H3.93463C3.9165 -1.48682 3.84397 -0.951926 3.72611 -0.806871C3.67172 -0.725277 3.04616 -0.725277 2.86484 -0.725277H1.2511L2.14863 -1.57748C3.63545 -2.86484 4.18847 -3.34534 4.18847 -4.27007C4.18847 -5.31265 3.32721 -6.03793 2.21209 -6.03793C1.16951 -6.03793 0.462364 -5.21293 0.462364 -4.38793C0.462364 -3.93463 0.852201 -3.8893 0.933794 -3.8893C1.13325 -3.8893 1.40522 -4.03435 1.40522 -4.36073C1.40522 -4.63271 1.21484 -4.83216 0.933794 -4.83216C0.888464 -4.83216 0.861266 -4.83216 0.825003 -4.82309C1.04259 -5.46678 1.62281 -5.75689 2.11237 -5.75689C3.0371 -5.75689 3.35441 -4.89562 3.35441 -4.27007C3.35441 -3.34534 2.65633 -2.59287 2.22116 -2.12144L0.56209 -0.326375C0.462364 -0.226649 0.462364 -0.208517 0.462364 0H3.93463L4.18847 -1.60468Z' id='g2-50'/>
<path d='M2.76512 -3.19122C3.60825 -3.50853 4.00716 -4.17034 4.00716 -4.79589C4.00716 -5.49397 3.23655 -6.03793 2.29369 -6.03793S0.643683 -5.50304 0.643683 -4.81403C0.643683 -4.51485 0.843135 -4.3426 1.10605 -4.3426S1.55935 -4.53298 1.55935 -4.79589C1.55935 -5.1132 1.34176 -5.24919 1.03352 -5.24919C1.26923 -5.62996 1.82226 -5.81128 2.26649 -5.81128C3.01897 -5.81128 3.16402 -5.21293 3.16402 -4.78683C3.16402 -4.51485 3.10963 -4.07968 2.88298 -3.73518C2.60193 -3.32721 2.28462 -3.30908 2.02171 -3.29094C1.79506 -3.27281 1.77693 -3.27281 1.7044 -3.27281C1.62281 -3.26375 1.55028 -3.25468 1.55028 -3.15496C1.55028 -3.0371 1.62281 -3.0371 1.77693 -3.0371H2.20303C2.99177 -3.0371 3.33627 -2.40248 3.33627 -1.54121C3.33627 -0.38077 2.71979 -0.0543958 2.25742 -0.0543958C2.08517 -0.0543958 1.20577 -0.0997256 0.797805 -0.770607C1.12418 -0.725277 1.37803 -0.951926 1.37803 -1.26017C1.37803 -1.55935 1.15138 -1.74973 0.888464 -1.74973C0.661815 -1.74973 0.389836 -1.61374 0.389836 -1.23297C0.389836 -0.4261 1.23297 0.199451 2.28462 0.199451C3.41787 0.199451 4.261 -0.616485 4.261 -1.54121C4.261 -2.32995 3.63545 -3.00083 2.76512 -3.19122Z' id='g2-51'/>
<path d='M4.20922 3.1472C4.20922 3.10834 4.20922 3.08244 3.98904 2.86227C2.6939 1.55417 1.96862 -0.582814 1.96862 -3.22491C1.96862 -5.73748 2.57733 -7.90037 4.0797 -9.42864C4.20922 -9.54521 4.20922 -9.57111 4.20922 -9.60996C4.20922 -9.68767 4.14446 -9.71357 4.09265 -9.71357C3.92428 -9.71357 2.86227 -8.78107 2.22765 -7.51183C1.56712 -6.20374 1.26924 -4.81793 1.26924 -3.22491C1.26924 -2.07223 1.45056 -0.531009 2.12403 0.854795C2.88817 2.40897 3.95019 3.25081 4.09265 3.25081C4.14446 3.25081 4.20922 3.22491 4.20922 3.1472Z' id='g3-40'/>
<path d='M3.6523 -3.22491C3.6523 -4.20922 3.52279 -5.81519 2.79751 -7.31756C2.03337 -8.87173 0.971357 -9.71357 0.828892 -9.71357C0.777086 -9.71357 0.712329 -9.68767 0.712329 -9.60996C0.712329 -9.57111 0.712329 -9.54521 0.932503 -9.32503C2.22765 -8.01694 2.95293 -5.87995 2.95293 -3.23786C2.95293 -0.72528 2.34421 1.43761 0.841843 2.96588C0.712329 3.08244 0.712329 3.10834 0.712329 3.1472C0.712329 3.22491 0.777086 3.25081 0.828892 3.25081C0.99726 3.25081 2.05928 2.31831 2.6939 1.04907C3.35442 -0.27198 3.6523 -1.67073 3.6523 -3.22491Z' id='g3-41'/>
<path d='M8.74222 -4.19626C8.92354 -4.19626 9.15666 -4.19626 9.15666 -4.42939C9.15666 -4.67547 8.93649 -4.67547 8.74222 -4.67547H1.11382C0.932503 -4.67547 0.699377 -4.67547 0.699377 -4.44234C0.699377 -4.19626 0.919552 -4.19626 1.11382 -4.19626H8.74222ZM8.74222 -1.7873C8.92354 -1.7873 9.15666 -1.7873 9.15666 -2.02042C9.15666 -2.2665 8.93649 -2.2665 8.74222 -2.2665H1.11382C0.932503 -2.2665 0.699377 -2.2665 0.699377 -2.03337C0.699377 -1.7873 0.919552 -1.7873 1.11382 -1.7873H8.74222Z' id='g3-61'/>
<path d='M5.94471 -2.77161C5.94471 -4.44234 4.67547 -5.77634 3.1731 -5.77634C1.61893 -5.77634 0.388543 -4.40349 0.388543 -2.77161C0.388543 -1.11382 1.68369 0.129514 3.16015 0.129514C4.68842 0.129514 5.94471 -1.13973 5.94471 -2.77161ZM3.1731 -0.155417C2.6939 -0.155417 2.11108 -0.36264 1.73549 -0.99726C1.3858 -1.58007 1.37285 -2.34421 1.37285 -2.88817C1.37285 -3.38032 1.37285 -4.17036 1.77435 -4.75318C2.13699 -5.31009 2.70685 -5.51731 3.16015 -5.51731C3.66526 -5.51731 4.20922 -5.28418 4.5589 -4.77908C4.9604 -4.18331 4.9604 -3.36737 4.9604 -2.88817C4.9604 -2.43487 4.9604 -1.63188 4.62366 -1.02316C4.26102 -0.401494 3.66526 -0.155417 3.1731 -0.155417Z' id='g3-111'/>
<path d='M2.16289 -3.01768C2.16289 -4.27397 2.68095 -5.45255 3.67821 -5.45255C3.78182 -5.45255 3.80772 -5.45255 3.85953 -5.4396C3.75592 -5.3878 3.54869 -5.31009 3.54869 -4.9604C3.54869 -4.58481 3.84658 -4.44234 4.0538 -4.44234C4.31283 -4.44234 4.57186 -4.61071 4.57186 -4.9604C4.57186 -5.34894 4.22217 -5.71158 3.66526 -5.71158C2.56438 -5.71158 2.18879 -4.52005 2.11108 -4.27397H2.09813V-5.71158L0.36264 -5.56912V-5.19352C1.24334 -5.19352 1.34695 -5.10286 1.34695 -4.46824V-0.958406C1.34695 -0.375592 1.20448 -0.375592 0.36264 -0.375592V0C0.72528 -0.0259029 1.43761 -0.0259029 1.82615 -0.0259029C2.17584 -0.0259029 3.09539 -0.0259029 3.39328 0V-0.375592H3.13425C2.18879 -0.375592 2.16289 -0.518057 2.16289 -0.984309V-3.01768Z' id='g3-114'/>
<path d='M2.52553 0.0518057C2.52553 -0.699377 2.27945 -1.25629 1.74844 -1.25629C1.334 -1.25629 1.12677 -0.919552 1.12677 -0.63462S1.32105 0 1.76139 0C1.92976 0 2.07223 -0.0518057 2.18879 -0.168369C2.21469 -0.194271 2.22765 -0.194271 2.2406 -0.194271C2.2665 -0.194271 2.2665 -0.0129514 2.2665 0.0518057C2.2665 0.479203 2.18879 1.32105 1.43761 2.16289C1.29514 2.31831 1.29514 2.34421 1.29514 2.37011C1.29514 2.43487 1.3599 2.49963 1.42466 2.49963C1.52827 2.49963 2.52553 1.54122 2.52553 0.0518057Z' id='g1-59'/>
<path d='M5.9188 -4.84384C5.9188 -5.65978 5.50436 -5.71158 5.40075 -5.71158C5.08991 -5.71158 4.80498 -5.40075 4.80498 -5.14172C4.80498 -4.9863 4.89564 -4.89564 4.94745 -4.84384C5.07696 -4.72727 5.4137 -4.37758 5.4137 -3.70411C5.4137 -3.16015 4.63661 -0.129514 3.08244 -0.129514C2.2924 -0.129514 2.13699 -0.790037 2.13699 -1.26924C2.13699 -1.91681 2.43487 -2.82341 2.78456 -3.75592C2.99178 -4.28692 3.04359 -4.41644 3.04359 -4.67547C3.04359 -5.21943 2.65504 -5.71158 2.02042 -5.71158C0.828892 -5.71158 0.349689 -3.83362 0.349689 -3.73001C0.349689 -3.67821 0.401494 -3.61345 0.492154 -3.61345C0.608717 -3.61345 0.621669 -3.66526 0.673474 -3.84658C0.984309 -4.9604 1.48941 -5.45255 1.98157 -5.45255C2.09813 -5.45255 2.31831 -5.45255 2.31831 -5.02516C2.31831 -4.68842 2.17584 -4.31283 1.98157 -3.82067C1.3599 -2.16289 1.3599 -1.76139 1.3599 -1.45056C1.3599 -1.16563 1.39875 -0.63462 1.80025 -0.27198C2.2665 0.129514 2.91407 0.129514 3.03064 0.129514C5.18057 0.129514 5.9188 -4.1056 5.9188 -4.84384Z' id='g1-118'/>
</defs>
<g id='page1'>
<use x='56.4133' xlink:href='#g0-118' y='65.7534'/>
<use x='67.7008' xlink:href='#g3-61' y='65.7534'/>
<use x='81.1617' xlink:href='#g3-40' y='65.7534'/>
<use x='86.0934' xlink:href='#g1-118' y='65.7534'/>
<use x='92.2243' xlink:href='#g2-49' y='67.6961'/>
<use x='97.3813' xlink:href='#g1-59' y='65.7534'/>
<use x='103.062' xlink:href='#g1-118' y='65.7534'/>
<use x='109.193' xlink:href='#g2-50' y='67.6961'/>
<use x='114.35' xlink:href='#g1-59' y='65.7534'/>
<use x='120.031' xlink:href='#g1-118' y='65.7534'/>
<use x='126.162' xlink:href='#g2-51' y='67.6961'/>
<use x='131.319' xlink:href='#g3-41' y='65.7534'/>
<use x='161.614' xlink:href='#g3-111' y='65.7534'/>
<use x='167.955' xlink:href='#g3-114' y='65.7534'/>
<use x='198.249' xlink:href='#g0-118' y='65.7534'/>
<use x='209.537' xlink:href='#g3-61' y='65.7534'/>
<use x='222.998' xlink:href='#g3-40' y='65.7534'/>
<use x='227.93' xlink:href='#g1-118' y='65.7534'/>
<use x='234.06' xlink:href='#g2-48' y='67.6961'/>
<use x='239.217' xlink:href='#g1-59' y='65.7534'/>
<use x='244.899' xlink:href='#g1-118' y='65.7534'/>
<use x='251.029' xlink:href='#g2-49' y='67.6961'/>
<use x='256.186' xlink:href='#g1-59' y='65.7534'/>
<use x='261.868' xlink:href='#g1-118' y='65.7534'/>
<use x='267.998' xlink:href='#g2-50' y='67.6961'/>
<use x='273.155' xlink:href='#g3-41' y='65.7534'/>
</g>
</svg>