<?xml version='1.0' encoding='UTF-8'?>
<!-- This file was generated by dvisvgm 2.1.3 -->
<svg height='14.4279pt' version='1.1' viewBox='60.6404 54.5634 82.7445 14.4279' width='82.7445pt' xmlns='http://www.w3.org/2000/svg' xmlns:xlink='http://www.w3.org/1999/xlink'>
<defs>
<path d='M2.60193 -5.98354C2.6382 -6.11046 2.6382 -6.12859 2.6382 -6.16485C2.6382 -6.24645 2.5838 -6.29178 2.50221 -6.29178C2.37528 -6.29178 1.57748 -6.21925 1.39616 -6.20112C1.3055 -6.19205 1.20577 -6.18299 1.20577 -6.02887C1.20577 -5.91101 1.3055 -5.91101 1.45055 -5.91101C1.87665 -5.91101 1.87665 -5.84755 1.87665 -5.76595C1.87665 -5.72969 1.87665 -5.71156 1.83132 -5.54837L0.534892 -0.335441C0.498628 -0.208517 0.498628 -0.190385 0.498628 -0.163187C0.498628 -0.0181319 0.616485 0.0997256 0.779673 0.0997256C1.07885 0.0997256 1.14231 -0.163187 1.18764 -0.344507L1.61374 -2.05797C2.23023 -2.00358 2.69259 -1.7588 2.69259 -1.3055C2.69259 -1.2511 2.69259 -1.21484 2.66539 -1.07885C2.65633 -1.04259 2.62913 -0.915662 2.62913 -0.815937C2.62913 -0.281045 3.00083 0.0997256 3.49946 0.0997256C3.84397 0.0997256 4.06155 -0.108792 4.22474 -0.371704C4.45139 -0.716211 4.57831 -1.26017 4.57831 -1.29643C4.57831 -1.34176 4.55111 -1.40522 4.46045 -1.40522C4.36073 -1.40522 4.3426 -1.35989 4.29727 -1.19671C4.17941 -0.734343 3.95276 -0.126923 3.52666 -0.126923C3.26375 -0.126923 3.23655 -0.362639 3.23655 -0.56209C3.23655 -0.788739 3.29094 -1.02445 3.30001 -1.04259C3.31814 -1.09698 3.33627 -1.20577 3.33627 -1.31456C3.33627 -1.94918 2.67446 -2.19396 1.97638 -2.27556C2.24836 -2.44781 2.44781 -2.6382 2.73792 -2.92831C3.20028 -3.39067 3.58106 -3.78051 4.06155 -3.78051C4.17034 -3.78051 4.2882 -3.75331 4.36073 -3.67172C3.95276 -3.63545 3.85303 -3.30001 3.85303 -3.17309C3.85303 -3.00083 3.97996 -2.84671 4.20661 -2.84671C4.41512 -2.84671 4.70523 -3.0099 4.70523 -3.4088C4.70523 -3.70798 4.48765 -4.00716 4.06155 -4.00716C3.50853 -4.00716 3.0643 -3.56292 2.68353 -3.17309C2.24836 -2.74699 2.03078 -2.5294 1.69534 -2.38435L2.60193 -5.98354Z' id='g0-107'/>
<path d='M2.76512 -3.19122C3.60825 -3.50853 4.00716 -4.17034 4.00716 -4.79589C4.00716 -5.49397 3.23655 -6.03793 2.29369 -6.03793S0.643683 -5.50304 0.643683 -4.81403C0.643683 -4.51485 0.843135 -4.3426 1.10605 -4.3426S1.55935 -4.53298 1.55935 -4.79589C1.55935 -5.1132 1.34176 -5.24919 1.03352 -5.24919C1.26923 -5.62996 1.82226 -5.81128 2.26649 -5.81128C3.01897 -5.81128 3.16402 -5.21293 3.16402 -4.78683C3.16402 -4.51485 3.10963 -4.07968 2.88298 -3.73518C2.60193 -3.32721 2.28462 -3.30908 2.02171 -3.29094C1.79506 -3.27281 1.77693 -3.27281 1.7044 -3.27281C1.62281 -3.26375 1.55028 -3.25468 1.55028 -3.15496C1.55028 -3.0371 1.62281 -3.0371 1.77693 -3.0371H2.20303C2.99177 -3.0371 3.33627 -2.40248 3.33627 -1.54121C3.33627 -0.38077 2.71979 -0.0543958 2.25742 -0.0543958C2.08517 -0.0543958 1.20577 -0.0997256 0.797805 -0.770607C1.12418 -0.725277 1.37803 -0.951926 1.37803 -1.26017C1.37803 -1.55935 1.15138 -1.74973 0.888464 -1.74973C0.661815 -1.74973 0.389836 -1.61374 0.389836 -1.23297C0.389836 -0.4261 1.23297 0.199451 2.28462 0.199451C3.41787 0.199451 4.261 -0.616485 4.261 -1.54121C4.261 -2.32995 3.63545 -3.00083 2.76512 -3.19122Z' id='g2-51'/>
<path d='M4.20922 3.1472C4.20922 3.10834 4.20922 3.08244 3.98904 2.86227C2.6939 1.55417 1.96862 -0.582814 1.96862 -3.22491C1.96862 -5.73748 2.57733 -7.90037 4.0797 -9.42864C4.20922 -9.54521 4.20922 -9.57111 4.20922 -9.60996C4.20922 -9.68767 4.14446 -9.71357 4.09265 -9.71357C3.92428 -9.71357 2.86227 -8.78107 2.22765 -7.51183C1.56712 -6.20374 1.26924 -4.81793 1.26924 -3.22491C1.26924 -2.07223 1.45056 -0.531009 2.12403 0.854795C2.88817 2.40897 3.95019 3.25081 4.09265 3.25081C4.14446 3.25081 4.20922 3.22491 4.20922 3.1472Z' id='g3-40'/>
<path d='M3.6523 -3.22491C3.6523 -4.20922 3.52279 -5.81519 2.79751 -7.31756C2.03337 -8.87173 0.971357 -9.71357 0.828892 -9.71357C0.777086 -9.71357 0.712329 -9.68767 0.712329 -9.60996C0.712329 -9.57111 0.712329 -9.54521 0.932503 -9.32503C2.22765 -8.01694 2.95293 -5.87995 2.95293 -3.23786C2.95293 -0.72528 2.34421 1.43761 0.841843 2.96588C0.712329 3.08244 0.712329 3.10834 0.712329 3.1472C0.712329 3.22491 0.777086 3.25081 0.828892 3.25081C0.99726 3.25081 2.05928 2.31831 2.6939 1.04907C3.35442 -0.27198 3.6523 -1.67073 3.6523 -3.22491Z' id='g3-41'/>
<path d='M5.16762 -2.99178H8.74222C8.92354 -2.99178 9.15666 -2.99178 9.15666 -3.22491C9.15666 -3.47098 8.93649 -3.47098 8.74222 -3.47098H5.16762V-7.04558C5.16762 -7.2269 5.16762 -7.46002 4.9345 -7.46002C4.68842 -7.46002 4.68842 -7.23985 4.68842 -7.04558V-3.47098H1.11382C0.932503 -3.47098 0.699377 -3.47098 0.699377 -3.23786C0.699377 -2.99178 0.919552 -2.99178 1.11382 -2.99178H4.68842V0.582814C4.68842 0.764134 4.68842 0.99726 4.92154 0.99726C5.16762 0.99726 5.16762 0.777086 5.16762 0.582814V-2.99178Z' id='g3-43'/>
<path d='M2.38306 -4.64956C2.16289 -4.63661 2.11108 -4.62366 2.11108 -4.5071C2.11108 -4.37758 2.17584 -4.37758 2.40897 -4.37758H3.00473C4.1056 -4.37758 4.59776 -3.47098 4.59776 -2.22765C4.59776 -0.531009 3.71706 -0.0777086 3.08244 -0.0777086C2.46077 -0.0777086 1.39875 -0.375592 1.02316 -1.23039C1.43761 -1.16563 1.8132 -1.39875 1.8132 -1.86501C1.8132 -2.2406 1.54122 -2.49963 1.17858 -2.49963C0.867746 -2.49963 0.531009 -2.31831 0.531009 -1.82615C0.531009 -0.673474 1.68369 0.27198 3.1213 0.27198C4.66252 0.27198 5.80224 -0.9066 5.80224 -2.21469C5.80224 -3.40623 4.84384 -4.33873 3.6005 -4.5589C4.72727 -4.88269 5.45255 -5.82814 5.45255 -6.83836C5.45255 -7.86152 4.39054 -8.6127 3.13425 -8.6127C1.8391 -8.6127 0.880697 -7.82267 0.880697 -6.87721C0.880697 -6.35915 1.28219 -6.25554 1.47646 -6.25554C1.74844 -6.25554 2.05928 -6.44981 2.05928 -6.83836C2.05928 -7.2528 1.74844 -7.43412 1.46351 -7.43412C1.3858 -7.43412 1.3599 -7.43412 1.32105 -7.42117C1.8132 -8.30187 3.03064 -8.30187 3.09539 -8.30187C3.52279 -8.30187 4.36463 -8.1076 4.36463 -6.83836C4.36463 -6.59228 4.32578 -5.867 3.95019 -5.31009C3.56164 -4.74022 3.1213 -4.70137 2.77161 -4.68842L2.38306 -4.64956Z' id='g3-51'/>
<path d='M4.67547 -8.43138C4.67547 -8.67746 4.67547 -8.74222 4.49415 -8.74222C4.39054 -8.74222 4.35168 -8.74222 4.24807 -8.5868L0.349689 -2.53848V-2.16289H3.75592V-0.984309C3.75592 -0.505106 3.73001 -0.375592 2.78456 -0.375592H2.52553V0C2.82341 -0.0259029 3.84658 -0.0259029 4.20922 -0.0259029S5.60797 -0.0259029 5.90585 0V-0.375592H5.64682C4.71432 -0.375592 4.67547 -0.505106 4.67547 -0.984309V-2.16289H5.98356V-2.53848H4.67547V-8.43138ZM3.82067 -7.42117V-2.53848H0.673474L3.82067 -7.42117Z' id='g3-52'/>
<path d='M8.74222 -4.19626C8.92354 -4.19626 9.15666 -4.19626 9.15666 -4.42939C9.15666 -4.67547 8.93649 -4.67547 8.74222 -4.67547H1.11382C0.932503 -4.67547 0.699377 -4.67547 0.699377 -4.44234C0.699377 -4.19626 0.919552 -4.19626 1.11382 -4.19626H8.74222ZM8.74222 -1.7873C8.92354 -1.7873 9.15666 -1.7873 9.15666 -2.02042C9.15666 -2.2665 8.93649 -2.2665 8.74222 -2.2665H1.11382C0.932503 -2.2665 0.699377 -2.2665 0.699377 -2.03337C0.699377 -1.7873 0.919552 -1.7873 1.11382 -1.7873H8.74222Z' id='g3-61'/>
<path d='M3.66526 -1.85205C3.66526 -1.91681 3.61345 -1.96862 3.53574 -1.96862C3.41918 -1.96862 3.40623 -1.92976 3.34147 -1.70959C3.00473 -0.531009 2.47372 -0.129514 2.04633 -0.129514C1.89091 -0.129514 1.70959 -0.168369 1.70959 -0.556912C1.70959 -0.9066 1.86501 -1.29514 2.00747 -1.68369L2.91407 -4.09265C2.95293 -4.19626 3.04359 -4.42939 3.04359 -4.67547C3.04359 -5.21943 2.65504 -5.71158 2.02042 -5.71158C0.828892 -5.71158 0.349689 -3.83362 0.349689 -3.73001C0.349689 -3.67821 0.401494 -3.61345 0.492154 -3.61345C0.608717 -3.61345 0.621669 -3.66526 0.673474 -3.84658C0.984309 -4.9345 1.47646 -5.45255 1.98157 -5.45255C2.09813 -5.45255 2.31831 -5.4396 2.31831 -5.02516C2.31831 -4.68842 2.14994 -4.26102 2.04633 -3.97609L1.13973 -1.56712C1.06202 -1.3599 0.984309 -1.15268 0.984309 -0.919552C0.984309 -0.336737 1.3858 0.129514 2.00747 0.129514C3.199 0.129514 3.66526 -1.76139 3.66526 -1.85205ZM3.56164 -8.08169C3.56164 -8.27597 3.40623 -8.50909 3.1213 -8.50909C2.82341 -8.50909 2.48667 -8.22416 2.48667 -7.88742C2.48667 -7.56364 2.75866 -7.46002 2.91407 -7.46002C3.26376 -7.46002 3.56164 -7.79676 3.56164 -8.08169Z' id='g1-105'/>
<path d='M3.63935 -8.66451C3.6523 -8.71631 3.67821 -8.79402 3.67821 -8.85878C3.67821 -8.98829 3.54869 -8.98829 3.52279 -8.98829C3.50984 -8.98829 3.04359 -8.94944 2.81046 -8.92354C2.59029 -8.91059 2.39601 -8.88468 2.16289 -8.87173C1.85205 -8.84583 1.76139 -8.83288 1.76139 -8.59975C1.76139 -8.47024 1.89091 -8.47024 2.02042 -8.47024C2.68095 -8.47024 2.68095 -8.35367 2.68095 -8.22416C2.68095 -8.17235 2.68095 -8.14645 2.61619 -7.91333L0.764134 -0.505106C0.712329 -0.310834 0.712329 -0.284932 0.712329 -0.207223C0.712329 0.0777086 0.932503 0.129514 1.06202 0.129514C1.42466 0.129514 1.50237 -0.155417 1.60598 -0.556912L2.21469 -2.97883C3.1472 -2.87522 3.70411 -2.48667 3.70411 -1.86501C3.70411 -1.7873 3.70411 -1.73549 3.66526 -1.54122C3.61345 -1.34695 3.61345 -1.19153 3.61345 -1.12677C3.61345 -0.375592 4.1056 0.129514 4.76613 0.129514C5.36189 0.129514 5.67273 -0.414446 5.77634 -0.595766C6.04832 -1.07497 6.21669 -1.80025 6.21669 -1.85205C6.21669 -1.91681 6.16488 -1.96862 6.08717 -1.96862C5.97061 -1.96862 5.95766 -1.91681 5.90585 -1.70959C5.72453 -1.03611 5.45255 -0.129514 4.79203 -0.129514C4.533 -0.129514 4.36463 -0.259029 4.36463 -0.751183C4.36463 -0.99726 4.41644 -1.28219 4.46824 -1.47646C4.52005 -1.70959 4.52005 -1.72254 4.52005 -1.87796C4.52005 -2.64209 3.83362 -3.06949 2.64209 -3.22491C3.10834 -3.50984 3.5746 -4.01494 3.75592 -4.20922C4.49415 -5.03811 4.99925 -5.45255 5.59502 -5.45255C5.8929 -5.45255 5.97061 -5.37484 6.06127 -5.29714C5.58207 -5.24533 5.40075 -4.90859 5.40075 -4.64956C5.40075 -4.33873 5.64682 -4.23512 5.82814 -4.23512C6.17783 -4.23512 6.48867 -4.533 6.48867 -4.94745C6.48867 -5.32304 6.19078 -5.71158 5.60797 -5.71158C4.89564 -5.71158 4.31283 -5.20648 3.39328 -4.17036C3.26376 -4.01494 2.78456 -3.52279 2.30535 -3.34147L3.63935 -8.66451Z' id='g1-107'/>
<path d='M1.64483 -1.04907C2.20174 -1.68369 2.65504 -2.08518 3.30262 -2.668C4.0797 -3.34147 4.41644 -3.66526 4.59776 -3.85953C5.50436 -4.75318 5.95766 -5.50436 5.95766 -5.60797S5.85405 -5.71158 5.82814 -5.71158C5.73748 -5.71158 5.71158 -5.65978 5.64682 -5.56912C5.32304 -5.0122 5.0122 -4.74022 4.67547 -4.74022C4.40349 -4.74022 4.26102 -4.85679 4.01494 -5.16762C3.74296 -5.49141 3.52279 -5.71158 3.1472 -5.71158C2.20174 -5.71158 1.63188 -4.533 1.63188 -4.26102C1.63188 -4.22217 1.64483 -4.14446 1.76139 -4.14446C1.86501 -4.14446 1.87796 -4.19626 1.91681 -4.28692C2.13699 -4.80498 2.75866 -4.89564 3.00473 -4.89564C3.27671 -4.89564 3.53574 -4.80498 3.80772 -4.68842C4.29988 -4.4812 4.5071 -4.4812 4.63661 -4.4812C4.72727 -4.4812 4.77908 -4.4812 4.84384 -4.49415C4.41644 -3.98904 3.71706 -3.36737 3.13425 -2.83636L1.82615 -1.63188C1.03611 -0.828892 0.556912 -0.0647572 0.556912 0.0259029C0.556912 0.103611 0.621669 0.129514 0.699377 0.129514S0.790037 0.116563 0.880697 -0.0388543C1.08792 -0.36264 1.50237 -0.841843 1.98157 -0.841843C2.25355 -0.841843 2.38306 -0.751183 2.64209 -0.427397C2.88817 -0.142466 3.10834 0.129514 3.52279 0.129514C4.79203 0.129514 5.51731 -1.51532 5.51731 -1.8132C5.51731 -1.86501 5.50436 -1.94271 5.37484 -1.94271C5.27123 -1.94271 5.25828 -1.89091 5.21943 -1.76139C4.9345 -0.99726 4.17036 -0.686426 3.66526 -0.686426C3.39328 -0.686426 3.13425 -0.777086 2.86227 -0.893649C2.34421 -1.10087 2.20174 -1.10087 2.03337 -1.10087C1.90386 -1.10087 1.76139 -1.10087 1.64483 -1.04907Z' id='g1-122'/>
</defs>
<g id='page1'>
<use x='60.6404' xlink:href='#g1-122' y='65.7534'/>
<use x='66.5315' xlink:href='#g0-107' y='67.6961'/>
<use x='75.7442' xlink:href='#g3-61' y='65.7534'/>
<use x='89.2052' xlink:href='#g3-40' y='65.7534'/>
<use x='94.1369' xlink:href='#g3-51' y='65.7534'/>
<use x='100.478' xlink:href='#g1-107' y='65.7534'/>
<use x='110.386' xlink:href='#g3-43' y='65.7534'/>
<use x='123.127' xlink:href='#g3-52' y='65.7534'/>
<use x='129.468' xlink:href='#g1-105' y='65.7534'/>
<use x='133.794' xlink:href='#g3-41' y='65.7534'/>
<use x='138.726' xlink:href='#g2-51' y='60.4059'/>
</g>
</svg>