<?xml version='1.0' encoding='UTF-8'?>
<!-- This file was generated by dvisvgm 2.1.3 -->
<svg height='13.4191pt' version='1.1' viewBox='56.4133 56.0399 80.7821 13.4191' width='80.7821pt' xmlns='http://www.w3.org/2000/svg' xmlns:xlink='http://www.w3.org/1999/xlink'>
<defs>
<path d='M6.41096 -4.89564C6.50162 -5.08991 6.55342 -5.19352 7.36936 -5.19352V-5.75044C6.90311 -5.72453 6.87721 -5.72453 6.3462 -5.72453C5.99651 -5.72453 5.97061 -5.72453 5.23238 -5.75044V-5.19352C5.58207 -5.19352 5.867 -5.12877 5.867 -5.03811C5.867 -5.02516 5.867 -5.0122 5.80224 -4.88269L4.28692 -1.55417L2.61619 -5.19352H3.32852V-5.75044C3.03064 -5.72453 2.12403 -5.72453 1.77435 -5.72453C1.39875 -5.72453 0.647572 -5.72453 0.310834 -5.75044V-5.19352H1.12677L3.40623 -0.246077C3.52279 0 3.54869 0.0647572 3.84658 0.0647572C4.0538 0.0647572 4.15741 0.0388543 4.27397 -0.220174L6.41096 -4.89564Z' id='g0-118'/>
<path d='M4.20922 3.1472C4.20922 3.10834 4.20922 3.08244 3.98904 2.86227C2.6939 1.55417 1.96862 -0.582814 1.96862 -3.22491C1.96862 -5.73748 2.57733 -7.90037 4.0797 -9.42864C4.20922 -9.54521 4.20922 -9.57111 4.20922 -9.60996C4.20922 -9.68767 4.14446 -9.71357 4.09265 -9.71357C3.92428 -9.71357 2.86227 -8.78107 2.22765 -7.51183C1.56712 -6.20374 1.26924 -4.81793 1.26924 -3.22491C1.26924 -2.07223 1.45056 -0.531009 2.12403 0.854795C2.88817 2.40897 3.95019 3.25081 4.09265 3.25081C4.14446 3.25081 4.20922 3.22491 4.20922 3.1472Z' id='g3-40'/>
<path d='M3.6523 -3.22491C3.6523 -4.20922 3.52279 -5.81519 2.79751 -7.31756C2.03337 -8.87173 0.971357 -9.71357 0.828892 -9.71357C0.777086 -9.71357 0.712329 -9.68767 0.712329 -9.60996C0.712329 -9.57111 0.712329 -9.54521 0.932503 -9.32503C2.22765 -8.01694 2.95293 -5.87995 2.95293 -3.23786C2.95293 -0.72528 2.34421 1.43761 0.841843 2.96588C0.712329 3.08244 0.712329 3.10834 0.712329 3.1472C0.712329 3.22491 0.777086 3.25081 0.828892 3.25081C0.99726 3.25081 2.05928 2.31831 2.6939 1.04907C3.35442 -0.27198 3.6523 -1.67073 3.6523 -3.22491Z' id='g3-41'/>
<path d='M8.74222 -4.19626C8.92354 -4.19626 9.15666 -4.19626 9.15666 -4.42939C9.15666 -4.67547 8.93649 -4.67547 8.74222 -4.67547H1.11382C0.932503 -4.67547 0.699377 -4.67547 0.699377 -4.44234C0.699377 -4.19626 0.919552 -4.19626 1.11382 -4.19626H8.74222ZM8.74222 -1.7873C8.92354 -1.7873 9.15666 -1.7873 9.15666 -2.02042C9.15666 -2.2665 8.93649 -2.2665 8.74222 -2.2665H1.11382C0.932503 -2.2665 0.699377 -2.2665 0.699377 -2.03337C0.699377 -1.7873 0.919552 -1.7873 1.11382 -1.7873H8.74222Z' id='g3-61'/>
<path d='M2.52553 0.0518057C2.52553 -0.699377 2.27945 -1.25629 1.74844 -1.25629C1.334 -1.25629 1.12677 -0.919552 1.12677 -0.63462S1.32105 0 1.76139 0C1.92976 0 2.07223 -0.0518057 2.18879 -0.168369C2.21469 -0.194271 2.22765 -0.194271 2.2406 -0.194271C2.2665 -0.194271 2.2665 -0.0129514 2.2665 0.0518057C2.2665 0.479203 2.18879 1.32105 1.43761 2.16289C1.29514 2.31831 1.29514 2.34421 1.29514 2.37011C1.29514 2.43487 1.3599 2.49963 1.42466 2.49963C1.52827 2.49963 2.52553 1.54122 2.52553 0.0518057Z' id='g2-59'/>
<path d='M5.9188 -4.84384C5.9188 -5.65978 5.50436 -5.71158 5.40075 -5.71158C5.08991 -5.71158 4.80498 -5.40075 4.80498 -5.14172C4.80498 -4.9863 4.89564 -4.89564 4.94745 -4.84384C5.07696 -4.72727 5.4137 -4.37758 5.4137 -3.70411C5.4137 -3.16015 4.63661 -0.129514 3.08244 -0.129514C2.2924 -0.129514 2.13699 -0.790037 2.13699 -1.26924C2.13699 -1.91681 2.43487 -2.82341 2.78456 -3.75592C2.99178 -4.28692 3.04359 -4.41644 3.04359 -4.67547C3.04359 -5.21943 2.65504 -5.71158 2.02042 -5.71158C0.828892 -5.71158 0.349689 -3.83362 0.349689 -3.73001C0.349689 -3.67821 0.401494 -3.61345 0.492154 -3.61345C0.608717 -3.61345 0.621669 -3.66526 0.673474 -3.84658C0.984309 -4.9604 1.48941 -5.45255 1.98157 -5.45255C2.09813 -5.45255 2.31831 -5.45255 2.31831 -5.02516C2.31831 -4.68842 2.17584 -4.31283 1.98157 -3.82067C1.3599 -2.16289 1.3599 -1.76139 1.3599 -1.45056C1.3599 -1.16563 1.39875 -0.63462 1.80025 -0.27198C2.2665 0.129514 2.91407 0.129514 3.03064 0.129514C5.18057 0.129514 5.9188 -4.1056 5.9188 -4.84384Z' id='g2-118'/>
<path d='M4.46045 -3.66265C4.12501 -3.59919 4.02529 -3.30908 4.02529 -3.17309C4.02529 -3.00083 4.15221 -2.84671 4.37886 -2.84671C4.63271 -2.84671 4.87749 -3.0643 4.87749 -3.3816C4.87749 -3.79864 4.42419 -4.00716 3.99809 -4.00716C3.45413 -4.00716 3.13682 -3.52666 3.02803 -3.33627C2.85578 -3.78051 2.45688 -4.00716 2.02171 -4.00716C1.05165 -4.00716 0.525826 -2.84671 0.525826 -2.611C0.525826 -2.5294 0.589288 -2.50221 0.652749 -2.50221C0.734343 -2.50221 0.761541 -2.54754 0.779673 -2.60193C1.06072 -3.49946 1.65907 -3.78051 2.00358 -3.78051C2.26649 -3.78051 2.50221 -3.60825 2.50221 -3.18215C2.50221 -2.85578 2.11237 -1.40522 1.99451 -0.970058C1.92198 -0.689013 1.65001 -0.126923 1.15138 -0.126923C0.970058 -0.126923 0.779673 -0.190385 0.689013 -0.244781C0.933794 -0.290111 1.11511 -0.498628 1.11511 -0.734343C1.11511 -0.960992 0.94286 -1.06072 0.770607 -1.06072C0.507694 -1.06072 0.271979 -0.834069 0.271979 -0.525826C0.271979 -0.0815937 0.761541 0.0997256 1.14231 0.0997256C1.66814 0.0997256 1.97638 -0.335441 2.11237 -0.580222C2.33902 0.0181319 2.87391 0.0997256 3.11869 0.0997256C4.09782 0.0997256 4.61458 -1.07885 4.61458 -1.29643C4.61458 -1.34176 4.58738 -1.40522 4.49672 -1.40522C4.39699 -1.40522 4.38793 -1.36896 4.3426 -1.23297C4.14315 -0.580222 3.61732 -0.126923 3.14589 -0.126923C2.88298 -0.126923 2.6382 -0.290111 2.6382 -0.725277C2.6382 -0.924728 2.76512 -1.42336 2.84671 -1.76786C2.88298 -1.93105 3.12776 -2.91017 3.14589 -2.97364C3.25468 -3.30001 3.52666 -3.78051 3.98902 -3.78051C4.15221 -3.78051 4.32446 -3.75331 4.46045 -3.66265Z' id='g1-120'/>
<path d='M4.55111 -3.4904C4.56018 -3.53573 4.57831 -3.59012 4.57831 -3.64452C4.57831 -3.76237 4.49672 -3.90743 4.29727 -3.90743C4.17941 -3.90743 4.01622 -3.8349 3.94369 -3.66265C3.93463 -3.62639 3.84397 -3.25468 3.78957 -3.05523L3.33627 -1.24204C3.26375 -0.979124 3.26375 -0.960992 3.24561 -0.879398C3.23655 -0.843135 2.85578 -0.126923 2.20303 -0.126923C1.64094 -0.126923 1.64094 -0.698079 1.64094 -0.870332C1.64094 -1.2783 1.7588 -1.72253 2.14863 -2.73792C2.22116 -2.94644 2.27556 -3.07336 2.27556 -3.24561C2.27556 -3.68985 1.94012 -4.00716 1.49588 -4.00716C0.625551 -4.00716 0.262913 -2.71979 0.262913 -2.611C0.262913 -2.5294 0.326375 -2.50221 0.389836 -2.50221C0.489562 -2.50221 0.498628 -2.5566 0.534892 -2.67446C0.725277 -3.34534 1.08792 -3.78051 1.46869 -3.78051C1.68627 -3.78051 1.68627 -3.60825 1.68627 -3.48133C1.68627 -3.32721 1.65001 -3.16402 1.56841 -2.94644C1.14231 -1.82226 1.02445 -1.44149 1.02445 -1.00632C1.02445 0 1.84039 0.0997256 2.17583 0.0997256C2.62006 0.0997256 2.93737 -0.135989 3.10056 -0.299177C2.9827 0.163187 2.88298 0.571156 2.5294 1.02445C2.25742 1.38709 1.89479 1.63187 1.49588 1.63187C1.24204 1.63187 0.94286 1.54121 0.815937 1.28737C1.29643 1.28737 1.35989 0.888464 1.35989 0.797805C1.35989 0.598354 1.21484 0.47143 1.01539 0.47143C0.797805 0.47143 0.507694 0.643683 0.507694 1.06072C0.507694 1.53215 0.924728 1.85852 1.49588 1.85852C2.42061 1.85852 3.4088 1.06978 3.67172 0.00906596L4.55111 -3.4904Z' id='g1-121'/>
<path d='M1.26017 -0.770607C1.45055 -0.997256 1.94918 -1.45055 2.33902 -1.77693C3.0099 -2.34808 3.21842 -2.54754 3.33627 -2.67446C4.07968 -3.39067 4.32446 -3.85303 4.32446 -3.90743C4.32446 -3.9165 4.32446 -4.00716 4.20661 -4.00716C4.12501 -4.00716 4.10688 -3.97996 4.06155 -3.90743C3.94369 -3.72611 3.69891 -3.33627 3.39067 -3.33627C3.20935 -3.33627 3.09149 -3.436 2.88298 -3.67172C2.66539 -3.90743 2.49314 -4.00716 2.25742 -4.00716C1.55935 -4.00716 1.13325 -3.17309 1.13325 -2.94644C1.13325 -2.91924 1.15138 -2.84671 1.2511 -2.84671C1.34176 -2.84671 1.36896 -2.90111 1.37803 -2.92831C1.55028 -3.36347 2.08517 -3.36347 2.1577 -3.36347C2.36622 -3.36347 2.5838 -3.30001 2.78325 -3.22748C3.14589 -3.10963 3.30001 -3.10963 3.436 -3.10963C3.15496 -2.79232 2.64726 -2.35715 2.07611 -1.86759C1.62281 -1.47775 1.34176 -1.20577 1.14231 -1.00632C0.806871 -0.652749 0.398902 -0.0997256 0.398902 0C0.398902 0.0634617 0.444232 0.0997256 0.51676 0.0997256C0.598354 0.0997256 0.616485 0.0634617 0.661815 0.00906596C1.01539 -0.534892 1.35083 -0.571156 1.45055 -0.571156C1.6772 -0.571156 1.80413 -0.435166 2.00358 -0.199451C2.21209 0.0271979 2.41155 0.0997256 2.59287 0.0997256C3.52666 0.0997256 4.07062 -1.06072 4.07062 -1.3055C4.07062 -1.38709 4.00716 -1.41429 3.94369 -1.41429C3.85303 -1.41429 3.8349 -1.35083 3.81677 -1.31456C3.57199 -0.643683 2.92831 -0.543958 2.69259 -0.543958C2.52034 -0.543958 2.33902 -0.589288 2.06704 -0.679947C1.88572 -0.734343 1.66814 -0.797805 1.47775 -0.797805C1.38709 -0.797805 1.29643 -0.779673 1.26017 -0.770607Z' id='g1-122'/>
</defs>
<g id='page1'>
<use x='56.4133' xlink:href='#g0-118' y='65.7534'/>
<use x='67.7008' xlink:href='#g3-61' y='65.7534'/>
<use x='81.1617' xlink:href='#g3-40' y='65.7534'/>
<use x='86.0934' xlink:href='#g2-118' y='65.7534'/>
<use x='92.2243' xlink:href='#g1-120' y='67.6961'/>
<use x='98.0039' xlink:href='#g2-59' y='65.7534'/>
<use x='103.685' xlink:href='#g2-118' y='65.7534'/>
<use x='109.816' xlink:href='#g1-121' y='67.6961'/>
<use x='115.228' xlink:href='#g2-59' y='65.7534'/>
<use x='120.909' xlink:href='#g2-118' y='65.7534'/>
<use x='127.04' xlink:href='#g1-122' y='67.6961'/>
<use x='132.264' xlink:href='#g3-41' y='65.7534'/>
</g>
</svg>