<?xml version='1.0' encoding='UTF-8'?>
<!-- This file was generated by dvisvgm 2.1.3 -->
<svg height='11.6964pt' version='1.1' viewBox='64.8676 54.5634 75.1619 11.6964' width='75.1619pt' xmlns='http://www.w3.org/2000/svg' xmlns:xlink='http://www.w3.org/1999/xlink'>
<defs>
<path d='M3.78182 -5.10286C3.61345 -4.57186 3.40623 -3.95019 3.32852 -3.52279H3.31557C3.21196 -4.17036 2.08518 -7.56364 2.05928 -7.61544C1.91681 -7.91333 1.65778 -7.91333 1.43761 -7.91333H0.751183C0.569863 -7.91333 0.220174 -7.91333 0.220174 -7.53773S0.54396 -7.16214 0.880697 -7.16214V-0.751183C0.54396 -0.751183 0.220174 -0.751183 0.220174 -0.375592S0.569863 0 0.751183 0H1.73549C1.91681 0 2.2665 0 2.2665 -0.375592S1.94271 -0.751183 1.60598 -0.751183V-7.00672H1.61893C1.69664 -6.60523 1.73549 -6.46276 1.89091 -5.99651L2.81046 -3.10834C2.83636 -3.00473 2.95293 -2.64209 3.32852 -2.64209C3.48394 -2.64209 3.70411 -2.7457 3.80772 -2.97883C3.87248 -3.1731 5.05106 -6.7995 5.05106 -6.98082V-0.751183C4.71432 -0.751183 4.39054 -0.751183 4.39054 -0.375592S4.74022 0 4.92154 0H5.90585C6.08717 0 6.43686 0 6.43686 -0.375592S6.11308 -0.751183 5.77634 -0.751183V-7.16214C6.11308 -7.16214 6.43686 -7.16214 6.43686 -7.53773S6.08717 -7.91333 5.90585 -7.91333H5.21943C4.71432 -7.91333 4.63661 -7.75791 4.533 -7.42117L3.78182 -5.10286Z' id='g0-77'/>
<path d='M3.199 -4.83088H4.76613C4.94745 -4.83088 5.28418 -4.83088 5.28418 -5.20648S4.94745 -5.58207 4.76613 -5.58207H3.199V-6.22964C3.199 -7.23985 4.1056 -7.23985 4.52005 -7.23985C4.52005 -7.21395 4.62366 -6.73474 5.05106 -6.73474C5.25828 -6.73474 5.55616 -6.89016 5.55616 -7.2528C5.55616 -7.99103 4.57186 -7.99103 4.37758 -7.99103C3.39328 -7.99103 2.35716 -7.43412 2.35716 -6.28144V-5.58207H1.07497C0.893649 -5.58207 0.54396 -5.58207 0.54396 -5.20648S0.880697 -4.83088 1.06202 -4.83088H2.35716V-0.751183H1.12677C0.945455 -0.751183 0.608717 -0.751183 0.608717 -0.375592S0.945455 0 1.12677 0H4.42939C4.61071 0 4.94745 0 4.94745 -0.375592S4.61071 -0.751183 4.42939 -0.751183H3.199V-4.83088Z' id='g0-102'/>
<path d='M3.75592 -7.38232C3.75592 -7.78381 3.67821 -7.91333 3.23786 -7.91333H1.334C1.15268 -7.91333 0.81594 -7.91333 0.81594 -7.53773S1.15268 -7.16214 1.334 -7.16214H2.91407V-0.751183H1.334C1.15268 -0.751183 0.81594 -0.751183 0.81594 -0.375592S1.15268 0 1.334 0H5.33599C5.51731 0 5.85405 0 5.85405 -0.375592S5.51731 -0.751183 5.33599 -0.751183H3.75592V-7.38232Z' id='g0-108'/>
<path d='M7.09738 -2.97883C7.31756 -2.97883 7.55068 -2.97883 7.55068 -3.23786S7.31756 -3.49689 7.09738 -3.49689H1.60598C1.76139 -5.23238 3.25081 -6.47572 5.07696 -6.47572H7.09738C7.31756 -6.47572 7.55068 -6.47572 7.55068 -6.73474S7.31756 -6.99377 7.09738 -6.99377H5.05106C2.83636 -6.99377 1.07497 -5.31009 1.07497 -3.23786S2.83636 0.518057 5.05106 0.518057H7.09738C7.31756 0.518057 7.55068 0.518057 7.55068 0.259029S7.31756 0 7.09738 0H5.07696C3.25081 0 1.76139 -1.24334 1.60598 -2.97883H7.09738Z' id='g3-50'/>
<path d='M6.85131 -4.40349C8.59975 -4.86974 9.02715 -5.80224 9.02715 -6.50162C9.02715 -7.79676 7.66725 -8.88468 5.27123 -8.88468H0.492154V-8.32777H1.86501V-0.556912H0.492154V0C0.867746 -0.0259029 2.21469 -0.0259029 2.68095 -0.0259029S4.5071 -0.0259029 4.88269 0V-0.556912H3.50984V-4.23512H5.05106C5.56912 -4.23512 5.98356 -4.0797 6.26849 -3.74296C6.65704 -3.30262 6.65704 -3.01768 6.65704 -2.14994S6.65704 -0.751183 7.31756 -0.310834C7.99103 0.142466 9.05305 0.155417 9.33798 0.155417C10.659 0.155417 10.8144 -1.01021 10.8144 -1.19153C10.8144 -1.41171 10.7108 -1.45056 10.5425 -1.45056C10.2964 -1.45056 10.2834 -1.3599 10.2705 -1.19153C10.2057 -0.54396 9.80423 -0.27198 9.44159 -0.27198C8.6127 -0.27198 8.52204 -1.13973 8.41843 -2.33126C8.34072 -3.01768 8.25006 -3.97609 6.85131 -4.40349ZM5.02516 -4.66252H3.50984V-8.32777H5.05106C7.16214 -8.32777 7.201 -7.26575 7.201 -6.50162C7.201 -5.78929 7.18804 -4.66252 5.02516 -4.66252Z' id='g1-82'/>
<path d='M5.73875 -4.11595C5.83848 -4.21567 5.86568 -4.261 5.86568 -4.32446C5.86568 -4.44232 5.77502 -4.52392 5.67529 -4.52392C5.60277 -4.52392 5.5937 -4.50578 5.48491 -4.40606L3.61732 -2.54754L1.66814 -4.48765C1.62281 -4.52392 1.57748 -4.52392 1.56841 -4.52392C1.45962 -4.52392 1.36896 -4.43326 1.36896 -4.32446C1.36896 -4.25194 1.40522 -4.21567 1.50495 -4.11595L3.34534 -2.27556L1.50495 -0.435166C1.37803 -0.308243 1.36896 -0.262913 1.36896 -0.217583C1.36896 -0.108792 1.45962 -0.0181319 1.56841 -0.0181319C1.57748 -0.0181319 1.62281 -0.0181319 1.66814 -0.0453298L3.61732 -1.99451L5.51211 -0.108792C5.5665 -0.0543958 5.5937 -0.0181319 5.67529 -0.0181319C5.77502 -0.0181319 5.86568 -0.0997256 5.86568 -0.217583C5.86568 -0.253847 5.84755 -0.308243 5.82035 -0.326375C5.80222 -0.362639 4.19754 -1.96731 3.8893 -2.26649L5.73875 -4.11595Z' id='g2-2'/>
<path d='M4.18847 -1.60468H3.93463C3.9165 -1.48682 3.84397 -0.951926 3.72611 -0.806871C3.67172 -0.725277 3.04616 -0.725277 2.86484 -0.725277H1.2511L2.14863 -1.57748C3.63545 -2.86484 4.18847 -3.34534 4.18847 -4.27007C4.18847 -5.31265 3.32721 -6.03793 2.21209 -6.03793C1.16951 -6.03793 0.462364 -5.21293 0.462364 -4.38793C0.462364 -3.93463 0.852201 -3.8893 0.933794 -3.8893C1.13325 -3.8893 1.40522 -4.03435 1.40522 -4.36073C1.40522 -4.63271 1.21484 -4.83216 0.933794 -4.83216C0.888464 -4.83216 0.861266 -4.83216 0.825003 -4.82309C1.04259 -5.46678 1.62281 -5.75689 2.11237 -5.75689C3.0371 -5.75689 3.35441 -4.89562 3.35441 -4.27007C3.35441 -3.34534 2.65633 -2.59287 2.22116 -2.12144L0.56209 -0.326375C0.462364 -0.226649 0.462364 -0.208517 0.462364 0H3.93463L4.18847 -1.60468Z' id='g4-50'/>
<path d='M2.76512 -3.19122C3.60825 -3.50853 4.00716 -4.17034 4.00716 -4.79589C4.00716 -5.49397 3.23655 -6.03793 2.29369 -6.03793S0.643683 -5.50304 0.643683 -4.81403C0.643683 -4.51485 0.843135 -4.3426 1.10605 -4.3426S1.55935 -4.53298 1.55935 -4.79589C1.55935 -5.1132 1.34176 -5.24919 1.03352 -5.24919C1.26923 -5.62996 1.82226 -5.81128 2.26649 -5.81128C3.01897 -5.81128 3.16402 -5.21293 3.16402 -4.78683C3.16402 -4.51485 3.10963 -4.07968 2.88298 -3.73518C2.60193 -3.32721 2.28462 -3.30908 2.02171 -3.29094C1.79506 -3.27281 1.77693 -3.27281 1.7044 -3.27281C1.62281 -3.26375 1.55028 -3.25468 1.55028 -3.15496C1.55028 -3.0371 1.62281 -3.0371 1.77693 -3.0371H2.20303C2.99177 -3.0371 3.33627 -2.40248 3.33627 -1.54121C3.33627 -0.38077 2.71979 -0.0543958 2.25742 -0.0543958C2.08517 -0.0543958 1.20577 -0.0997256 0.797805 -0.770607C1.12418 -0.725277 1.37803 -0.951926 1.37803 -1.26017C1.37803 -1.55935 1.15138 -1.74973 0.888464 -1.74973C0.661815 -1.74973 0.389836 -1.61374 0.389836 -1.23297C0.389836 -0.4261 1.23297 0.199451 2.28462 0.199451C3.41787 0.199451 4.261 -0.616485 4.261 -1.54121C4.261 -2.32995 3.63545 -3.00083 2.76512 -3.19122Z' id='g4-51'/>
<path d='M0.262913 -1.77693V-1.49588H2.73792V-0.716211C2.73792 -0.38077 2.71072 -0.281045 2.03078 -0.281045H1.83132V0C2.40248 -0.0271979 3.0371 -0.0271979 3.10056 -0.0271979C3.14589 -0.0271979 3.79864 -0.0271979 4.36979 0V-0.281045H4.17034C3.4904 -0.281045 3.4632 -0.38077 3.4632 -0.716211V-1.49588H4.38793V-1.77693H3.4632V-5.89288C3.4632 -6.0742 3.4632 -6.13766 3.29094 -6.13766C3.18215 -6.13766 3.17309 -6.12859 3.09149 -6.00167L0.262913 -1.77693ZM0.553024 -1.77693L2.79232 -5.13134V-1.77693H0.553024Z' id='g4-52'/>
</defs>
<g id='page1'>
<use x='64.8676' xlink:href='#g0-77' y='65.7534'/>
<use x='71.5322' xlink:href='#g0-102' y='65.7534'/>
<use x='78.1968' xlink:href='#g0-108' y='65.7534'/>
<use x='88.4589' xlink:href='#g3-50' y='65.7534'/>
<use x='100.691' xlink:href='#g1-82' y='65.7534'/>
<use x='111.559' xlink:href='#g4-50' y='60.4059'/>
<use x='116.218' xlink:href='#g2-2' y='60.4059'/>
<use x='123.465' xlink:href='#g4-51' y='60.4059'/>
<use x='128.123' xlink:href='#g2-2' y='60.4059'/>
<use x='135.371' xlink:href='#g4-52' y='60.4059'/>
</g>
</svg>