<?xml version='1.0' encoding='UTF-8'?>
<!-- This file was generated by dvisvgm 2.1.3 -->
<svg height='12.5557pt' version='1.1' viewBox='60.6404 56.9033 100.913 12.5557' width='100.913pt' xmlns='http://www.w3.org/2000/svg' xmlns:xlink='http://www.w3.org/1999/xlink'>
<defs>
<path d='M8.53499 -2.97883C8.75517 -2.97883 8.98829 -2.97883 8.98829 -3.23786S8.75517 -3.49689 8.53499 -3.49689H1.52827C1.30809 -3.49689 1.07497 -3.49689 1.07497 -3.23786S1.30809 -2.97883 1.52827 -2.97883H8.53499Z' id='g0-0'/>
<path d='M1.65001 -0.145055C1.65001 0.154121 1.65001 0.89753 0.979124 1.54121C0.924728 1.59561 0.924728 1.60468 0.924728 1.64094C0.924728 1.7044 0.98819 1.74973 1.04259 1.74973C1.14231 1.74973 1.87665 1.04259 1.87665 -0.0181319C1.87665 -0.580222 1.6772 -0.979124 1.28737 -0.979124C0.979124 -0.979124 0.797805 -0.743409 0.797805 -0.489562S0.979124 0 1.28737 0C1.42336 0 1.55935 -0.0453298 1.65001 -0.145055Z' id='g1-59'/>
<path d='M2.62913 -5.65716C2.62913 -5.85661 2.48407 -5.9926 2.28462 -5.9926C2.03984 -5.9926 1.79506 -5.75689 1.79506 -5.51211C1.79506 -5.33079 1.93105 -5.17666 2.13957 -5.17666C2.38435 -5.17666 2.62913 -5.40331 2.62913 -5.65716ZM2.75605 -1.29643C2.75605 -1.34176 2.72885 -1.40522 2.6382 -1.40522C2.53847 -1.40522 2.5294 -1.35989 2.49314 -1.24204C2.27556 -0.498628 1.90385 -0.126923 1.55935 -0.126923C1.41429 -0.126923 1.34176 -0.199451 1.34176 -0.4261C1.34176 -0.643683 1.41429 -0.843135 1.48682 -1.01539C1.65001 -1.45055 1.65001 -1.46869 1.76786 -1.74973C1.91292 -2.13957 2.11237 -2.65633 2.20303 -2.91017C2.26649 -3.07336 2.26649 -3.16402 2.26649 -3.24561C2.26649 -3.76237 1.85852 -4.00716 1.49588 -4.00716C0.616485 -4.00716 0.262913 -2.71072 0.262913 -2.611C0.262913 -2.5294 0.326375 -2.50221 0.389836 -2.50221C0.489562 -2.50221 0.498628 -2.5566 0.534892 -2.67446C0.725277 -3.31814 1.06978 -3.78051 1.46869 -3.78051C1.55935 -3.78051 1.68627 -3.76237 1.68627 -3.4904C1.68627 -3.26375 1.59561 -3.02803 1.51402 -2.81951L0.870332 -1.14231C0.806871 -0.970058 0.752475 -0.825003 0.752475 -0.661815C0.752475 -0.235715 1.06978 0.0997256 1.53215 0.0997256C2.41155 0.0997256 2.75605 -1.20577 2.75605 -1.29643Z' id='g1-105'/>
<path d='M3.66265 -5.65716C3.66265 -5.82941 3.53573 -5.9926 3.31814 -5.9926C3.08243 -5.9926 2.82858 -5.78408 2.82858 -5.51211C2.82858 -5.28546 3.00083 -5.17666 3.16402 -5.17666C3.44507 -5.17666 3.66265 -5.43958 3.66265 -5.65716ZM1.81319 0.417034C1.62281 1.18764 1.14231 1.63187 0.689013 1.63187C0.498628 1.63187 0.47143 1.61374 0.362639 1.57748C0.534892 1.51402 0.725277 1.32363 0.725277 1.09698C0.725277 0.89753 0.571156 0.770607 0.38077 0.770607C0.126923 0.770607 -0.117858 0.979124 -0.117858 1.28737C-0.117858 1.6772 0.281045 1.85852 0.698079 1.85852C1.35083 1.85852 2.22116 1.37803 2.44781 0.480496L3.29094 -2.87391C3.32721 -3.01897 3.32721 -3.15496 3.32721 -3.16402C3.32721 -3.66265 2.9555 -4.00716 2.44781 -4.00716C1.50495 -4.00716 0.970058 -2.71072 0.970058 -2.611C0.970058 -2.5294 1.03352 -2.50221 1.09698 -2.50221C1.18764 -2.50221 1.19671 -2.5294 1.26923 -2.70166C1.52308 -3.28188 1.95825 -3.78051 2.42968 -3.78051C2.70166 -3.78051 2.71072 -3.52666 2.71072 -3.36347C2.71072 -3.35441 2.71072 -3.18215 2.68353 -3.07336L1.81319 0.417034Z' id='g1-106'/>
<path d='M11.7599 -7.90037C11.8765 -8.34072 11.9024 -8.47024 12.8219 -8.47024C13.068 -8.47024 13.1846 -8.47024 13.1846 -8.71631C13.1846 -8.84583 13.0939 -8.84583 12.8478 -8.84583H11.2936C10.9699 -8.84583 10.9569 -8.83288 10.8144 -8.62565L6.08717 -1.15268L5.11582 -8.5609C5.07696 -8.84583 5.06401 -8.84583 4.72727 -8.84583H3.1213C2.87522 -8.84583 2.75866 -8.84583 2.75866 -8.59975C2.75866 -8.47024 2.87522 -8.47024 3.06949 -8.47024C3.85953 -8.47024 3.85953 -8.36663 3.85953 -8.22416C3.85953 -8.19826 3.85953 -8.12055 3.80772 -7.92628L2.14994 -1.32105C1.99452 -0.699377 1.69664 -0.414446 0.828892 -0.375592C0.790037 -0.375592 0.63462 -0.36264 0.63462 -0.142466C0.63462 0 0.751183 0 0.802989 0C1.06202 0 1.72254 -0.0259029 1.98157 -0.0259029H2.60324C2.78456 -0.0259029 3.00473 0 3.18605 0C3.27671 0 3.41918 0 3.41918 -0.246077C3.41918 -0.36264 3.28966 -0.375592 3.23786 -0.375592C2.81046 -0.388543 2.39601 -0.466252 2.39601 -0.932503C2.39601 -1.06202 2.39601 -1.07497 2.44782 -1.25629L4.23512 -8.39253H4.24807L5.32304 -0.349689C5.36189 -0.0388543 5.37484 0 5.49141 0C5.63387 0 5.69863 -0.103611 5.76339 -0.220174L10.9699 -8.45729H10.9828L9.10486 -0.958406C8.98829 -0.505106 8.96239 -0.375592 8.05579 -0.375592C7.80971 -0.375592 7.6802 -0.375592 7.6802 -0.142466C7.6802 0 7.79676 0 7.87447 0C8.09465 0 8.35367 -0.0259029 8.57385 -0.0259029H10.1021C10.3223 -0.0259029 10.5943 0 10.8144 0C10.9181 0 11.0605 0 11.0605 -0.246077C11.0605 -0.375592 10.944 -0.375592 10.7497 -0.375592C9.95965 -0.375592 9.95965 -0.479203 9.95965 -0.608717C9.95965 -0.621669 9.95965 -0.712329 9.98555 -0.81594L11.7599 -7.90037Z' id='g2-77'/>
<path d='M3.66526 -1.85205C3.66526 -1.91681 3.61345 -1.96862 3.53574 -1.96862C3.41918 -1.96862 3.40623 -1.92976 3.34147 -1.70959C3.00473 -0.531009 2.47372 -0.129514 2.04633 -0.129514C1.89091 -0.129514 1.70959 -0.168369 1.70959 -0.556912C1.70959 -0.9066 1.86501 -1.29514 2.00747 -1.68369L2.91407 -4.09265C2.95293 -4.19626 3.04359 -4.42939 3.04359 -4.67547C3.04359 -5.21943 2.65504 -5.71158 2.02042 -5.71158C0.828892 -5.71158 0.349689 -3.83362 0.349689 -3.73001C0.349689 -3.67821 0.401494 -3.61345 0.492154 -3.61345C0.608717 -3.61345 0.621669 -3.66526 0.673474 -3.84658C0.984309 -4.9345 1.47646 -5.45255 1.98157 -5.45255C2.09813 -5.45255 2.31831 -5.4396 2.31831 -5.02516C2.31831 -4.68842 2.14994 -4.26102 2.04633 -3.97609L1.13973 -1.56712C1.06202 -1.3599 0.984309 -1.15268 0.984309 -0.919552C0.984309 -0.336737 1.3858 0.129514 2.00747 0.129514C3.199 0.129514 3.66526 -1.76139 3.66526 -1.85205ZM3.56164 -8.08169C3.56164 -8.27597 3.40623 -8.50909 3.1213 -8.50909C2.82341 -8.50909 2.48667 -8.22416 2.48667 -7.88742C2.48667 -7.56364 2.75866 -7.46002 2.91407 -7.46002C3.26376 -7.46002 3.56164 -7.79676 3.56164 -8.08169Z' id='g2-105'/>
<path d='M4.533 -4.1056C4.58481 -4.31283 4.58481 -4.49415 4.58481 -4.54595C4.58481 -5.29714 4.0279 -5.71158 3.44508 -5.71158C2.13699 -5.71158 1.43761 -3.82067 1.43761 -3.73001C1.43761 -3.66526 1.48941 -3.61345 1.56712 -3.61345C1.67073 -3.61345 1.68369 -3.66526 1.74844 -3.79477C2.2665 -5.05106 2.91407 -5.45255 3.40623 -5.45255C3.67821 -5.45255 3.82067 -5.31009 3.82067 -4.85679C3.82067 -4.54595 3.78182 -4.41644 3.73001 -4.18331L2.49963 0.699377C2.25355 1.65778 1.64483 2.38306 0.932503 2.38306C0.880697 2.38306 0.608717 2.38306 0.36264 2.25355C0.673474 2.18879 0.919552 1.94271 0.919552 1.63188C0.919552 1.42466 0.764134 1.21743 0.479203 1.21743C0.142466 1.21743 -0.168369 1.50237 -0.168369 1.89091C-0.168369 2.42192 0.401494 2.64209 0.932503 2.64209C1.82615 2.64209 3.00473 1.98157 3.32852 0.686426L4.533 -4.1056ZM5.06401 -8.08169C5.06401 -8.40548 4.79203 -8.50909 4.63661 -8.50909C4.28692 -8.50909 3.98904 -8.17235 3.98904 -7.88742C3.98904 -7.69315 4.14446 -7.46002 4.42939 -7.46002C4.72727 -7.46002 5.06401 -7.74496 5.06401 -8.08169Z' id='g2-106'/>
<path d='M5.80224 -4.14446C5.80224 -5.21943 5.73748 -6.26849 5.27123 -7.2528C4.74022 -8.32777 3.80772 -8.6127 3.1731 -8.6127C2.42192 -8.6127 1.50237 -8.23711 1.02316 -7.16214C0.660523 -6.3462 0.531009 -5.54321 0.531009 -4.14446C0.531009 -2.88817 0.621669 -1.94271 1.08792 -1.02316C1.59303 -0.0388543 2.48667 0.27198 3.16015 0.27198C4.28692 0.27198 4.9345 -0.401494 5.31009 -1.15268C5.77634 -2.12403 5.80224 -3.39328 5.80224 -4.14446ZM3.16015 0.0129514C2.7457 0.0129514 1.90386 -0.220174 1.65778 -1.63188C1.51532 -2.40897 1.51532 -3.39328 1.51532 -4.29988C1.51532 -5.36189 1.51532 -6.3203 1.72254 -7.08443C1.94271 -7.95218 2.60324 -8.35367 3.16015 -8.35367C3.6523 -8.35367 4.40349 -8.05579 4.64956 -6.94197C4.81793 -6.20374 4.81793 -5.18057 4.81793 -4.29988C4.81793 -3.43213 4.81793 -2.44782 4.67547 -1.65778C4.42939 -0.233126 3.61345 0.0129514 3.16015 0.0129514Z' id='g3-48'/>
<path d='M2.38306 -4.64956C2.16289 -4.63661 2.11108 -4.62366 2.11108 -4.5071C2.11108 -4.37758 2.17584 -4.37758 2.40897 -4.37758H3.00473C4.1056 -4.37758 4.59776 -3.47098 4.59776 -2.22765C4.59776 -0.531009 3.71706 -0.0777086 3.08244 -0.0777086C2.46077 -0.0777086 1.39875 -0.375592 1.02316 -1.23039C1.43761 -1.16563 1.8132 -1.39875 1.8132 -1.86501C1.8132 -2.2406 1.54122 -2.49963 1.17858 -2.49963C0.867746 -2.49963 0.531009 -2.31831 0.531009 -1.82615C0.531009 -0.673474 1.68369 0.27198 3.1213 0.27198C4.66252 0.27198 5.80224 -0.9066 5.80224 -2.21469C5.80224 -3.40623 4.84384 -4.33873 3.6005 -4.5589C4.72727 -4.88269 5.45255 -5.82814 5.45255 -6.83836C5.45255 -7.86152 4.39054 -8.6127 3.13425 -8.6127C1.8391 -8.6127 0.880697 -7.82267 0.880697 -6.87721C0.880697 -6.35915 1.28219 -6.25554 1.47646 -6.25554C1.74844 -6.25554 2.05928 -6.44981 2.05928 -6.83836C2.05928 -7.2528 1.74844 -7.43412 1.46351 -7.43412C1.3858 -7.43412 1.3599 -7.43412 1.32105 -7.42117C1.8132 -8.30187 3.03064 -8.30187 3.09539 -8.30187C3.52279 -8.30187 4.36463 -8.1076 4.36463 -6.83836C4.36463 -6.59228 4.32578 -5.867 3.95019 -5.31009C3.56164 -4.74022 3.1213 -4.70137 2.77161 -4.68842L2.38306 -4.64956Z' id='g3-51'/>
<path d='M1.59303 -4.5071C1.59303 -7.78381 3.18605 -8.30187 3.88543 -8.30187C4.35168 -8.30187 4.81793 -8.1594 5.06401 -7.77086C4.90859 -7.77086 4.41644 -7.77086 4.41644 -7.23985C4.41644 -6.95492 4.61071 -6.70884 4.94745 -6.70884C5.27123 -6.70884 5.49141 -6.90311 5.49141 -7.2787C5.49141 -7.95218 4.99925 -8.6127 3.87248 -8.6127C2.2406 -8.6127 0.531009 -6.94197 0.531009 -4.09265C0.531009 -0.531009 2.08518 0.27198 3.18605 0.27198C4.59776 0.27198 5.80224 -0.958406 5.80224 -2.64209C5.80224 -4.36463 4.59776 -5.51731 3.30262 -5.51731C2.14994 -5.51731 1.72254 -4.52005 1.59303 -4.15741V-4.5071ZM3.18605 -0.0777086C2.37011 -0.0777086 1.98157 -0.802989 1.86501 -1.07497C1.74844 -1.41171 1.61893 -2.04633 1.61893 -2.95293C1.61893 -3.97609 2.08518 -5.25828 3.25081 -5.25828C3.96314 -5.25828 4.33873 -4.77908 4.533 -4.33873C4.74022 -3.85953 4.74022 -3.21196 4.74022 -2.65504C4.74022 -1.99452 4.74022 -1.41171 4.49415 -0.919552C4.17036 -0.297883 3.70411 -0.0777086 3.18605 -0.0777086Z' id='g3-54'/>
<path d='M8.74222 -4.19626C8.92354 -4.19626 9.15666 -4.19626 9.15666 -4.42939C9.15666 -4.67547 8.93649 -4.67547 8.74222 -4.67547H1.11382C0.932503 -4.67547 0.699377 -4.67547 0.699377 -4.44234C0.699377 -4.19626 0.919552 -4.19626 1.11382 -4.19626H8.74222ZM8.74222 -1.7873C8.92354 -1.7873 9.15666 -1.7873 9.15666 -2.02042C9.15666 -2.2665 8.93649 -2.2665 8.74222 -2.2665H1.11382C0.932503 -2.2665 0.699377 -2.2665 0.699377 -2.03337C0.699377 -1.7873 0.919552 -1.7873 1.11382 -1.7873H8.74222Z' id='g3-61'/>
</defs>
<g id='page1'>
<use x='60.6404' xlink:href='#g2-77' y='65.7534'/>
<use x='72.909' xlink:href='#g1-105' y='67.6961'/>
<use x='76.0974' xlink:href='#g1-59' y='67.6961'/>
<use x='78.6856' xlink:href='#g1-106' y='67.6961'/>
<use x='87.1099' xlink:href='#g3-61' y='65.7534'/>
<use x='100.571' xlink:href='#g3-51' y='65.7534'/>
<use x='106.912' xlink:href='#g3-48' y='65.7534'/>
<use x='116.13' xlink:href='#g0-0' y='65.7534'/>
<use x='129.082' xlink:href='#g3-54' y='65.7534'/>
<use x='135.423' xlink:href='#g2-105' y='65.7534'/>
<use x='142.627' xlink:href='#g0-0' y='65.7534'/>
<use x='155.578' xlink:href='#g2-106' y='65.7534'/>
</g>
</svg>