<?xml version='1.0' encoding='UTF-8'?>
<!-- This file was generated by dvisvgm 2.1.3 -->
<svg height='13.7084pt' version='1.1' viewBox='56.4133 54.5634 183.012 13.7084' width='183.012pt' xmlns='http://www.w3.org/2000/svg' xmlns:xlink='http://www.w3.org/1999/xlink'>
<defs>
<path d='M8.53499 -2.97883C8.75517 -2.97883 8.98829 -2.97883 8.98829 -3.23786S8.75517 -3.49689 8.53499 -3.49689H1.52827C1.30809 -3.49689 1.07497 -3.49689 1.07497 -3.23786S1.30809 -2.97883 1.52827 -2.97883H8.53499Z' id='g0-0'/>
<path d='M8.74222 -7.69315C8.88468 -7.75791 8.98829 -7.82267 8.98829 -7.97808C8.98829 -8.12055 8.88468 -8.23711 8.72927 -8.23711C8.66451 -8.23711 8.54795 -8.18531 8.49614 -8.1594L1.334 -4.77908C1.11382 -4.67547 1.07497 -4.58481 1.07497 -4.4812C1.07497 -4.36463 1.15268 -4.27397 1.334 -4.19626L8.49614 -0.828892C8.66451 -0.738232 8.69041 -0.738232 8.72927 -0.738232C8.87173 -0.738232 8.98829 -0.854795 8.98829 -0.99726C8.98829 -1.11382 8.93649 -1.19153 8.71631 -1.29514L1.94271 -4.4812L8.74222 -7.69315ZM8.53499 1.77435C8.75517 1.77435 8.98829 1.77435 8.98829 1.51532S8.71631 1.25629 8.52204 1.25629H1.54122C1.34695 1.25629 1.07497 1.25629 1.07497 1.51532S1.30809 1.77435 1.52827 1.77435H8.53499Z' id='g0-20'/>
<path d='M2.62913 -5.65716C2.62913 -5.85661 2.48407 -5.9926 2.28462 -5.9926C2.03984 -5.9926 1.79506 -5.75689 1.79506 -5.51211C1.79506 -5.33079 1.93105 -5.17666 2.13957 -5.17666C2.38435 -5.17666 2.62913 -5.40331 2.62913 -5.65716ZM2.75605 -1.29643C2.75605 -1.34176 2.72885 -1.40522 2.6382 -1.40522C2.53847 -1.40522 2.5294 -1.35989 2.49314 -1.24204C2.27556 -0.498628 1.90385 -0.126923 1.55935 -0.126923C1.41429 -0.126923 1.34176 -0.199451 1.34176 -0.4261C1.34176 -0.643683 1.41429 -0.843135 1.48682 -1.01539C1.65001 -1.45055 1.65001 -1.46869 1.76786 -1.74973C1.91292 -2.13957 2.11237 -2.65633 2.20303 -2.91017C2.26649 -3.07336 2.26649 -3.16402 2.26649 -3.24561C2.26649 -3.76237 1.85852 -4.00716 1.49588 -4.00716C0.616485 -4.00716 0.262913 -2.71072 0.262913 -2.611C0.262913 -2.5294 0.326375 -2.50221 0.389836 -2.50221C0.489562 -2.50221 0.498628 -2.5566 0.534892 -2.67446C0.725277 -3.31814 1.06978 -3.78051 1.46869 -3.78051C1.55935 -3.78051 1.68627 -3.76237 1.68627 -3.4904C1.68627 -3.26375 1.59561 -3.02803 1.51402 -2.81951L0.870332 -1.14231C0.806871 -0.970058 0.752475 -0.825003 0.752475 -0.661815C0.752475 -0.235715 1.06978 0.0997256 1.53215 0.0997256C2.41155 0.0997256 2.75605 -1.20577 2.75605 -1.29643Z' id='g1-105'/>
<path d='M2.38306 -0.621669C2.38306 -0.99726 2.07223 -1.25629 1.76139 -1.25629C1.3858 -1.25629 1.12677 -0.945455 1.12677 -0.63462C1.12677 -0.259029 1.43761 0 1.74844 0C2.12403 0 2.38306 -0.310834 2.38306 -0.621669Z' id='g2-58'/>
<path d='M2.52553 0.0518057C2.52553 -0.699377 2.27945 -1.25629 1.74844 -1.25629C1.334 -1.25629 1.12677 -0.919552 1.12677 -0.63462S1.32105 0 1.76139 0C1.92976 0 2.07223 -0.0518057 2.18879 -0.168369C2.21469 -0.194271 2.22765 -0.194271 2.2406 -0.194271C2.2665 -0.194271 2.2665 -0.0129514 2.2665 0.0518057C2.2665 0.479203 2.18879 1.32105 1.43761 2.16289C1.29514 2.31831 1.29514 2.34421 1.29514 2.37011C1.29514 2.43487 1.3599 2.49963 1.42466 2.49963C1.52827 2.49963 2.52553 1.54122 2.52553 0.0518057Z' id='g2-59'/>
<path d='M8.53499 -6.30735C8.76812 -6.41096 8.79402 -6.50162 8.79402 -6.57933C8.79402 -6.72179 8.69041 -6.8254 8.54795 -6.8254C8.52204 -6.8254 8.50909 -6.81245 8.32777 -6.73474L1.32105 -3.50984C1.08792 -3.40623 1.06202 -3.31557 1.06202 -3.23786C1.06202 -3.1472 1.07497 -3.06949 1.32105 -2.95293L8.32777 0.27198C8.49614 0.349689 8.52204 0.36264 8.54795 0.36264C8.69041 0.36264 8.79402 0.259029 8.79402 0.116563C8.79402 0.0388543 8.76812 -0.0518057 8.53499 -0.155417L1.86501 -3.22491L8.53499 -6.30735Z' id='g2-60'/>
<path d='M2.99178 -8.66451C3.00473 -8.71631 3.03064 -8.79402 3.03064 -8.85878C3.03064 -8.98829 2.90112 -8.98829 2.87522 -8.98829C2.86227 -8.98829 2.39601 -8.94944 2.16289 -8.92354C1.94271 -8.91059 1.74844 -8.88468 1.51532 -8.87173C1.20448 -8.84583 1.11382 -8.83288 1.11382 -8.59975C1.11382 -8.47024 1.24334 -8.47024 1.37285 -8.47024C2.03337 -8.47024 2.03337 -8.35367 2.03337 -8.22416C2.03337 -8.1335 1.92976 -7.75791 1.87796 -7.52478L1.56712 -6.28144C1.43761 -5.76339 0.699377 -2.82341 0.647572 -2.59029C0.582814 -2.2665 0.582814 -2.04633 0.582814 -1.87796C0.582814 -0.556912 1.32105 0.129514 2.16289 0.129514C3.66526 0.129514 5.21943 -1.80025 5.21943 -3.67821C5.21943 -4.86974 4.54595 -5.71158 3.5746 -5.71158C2.90112 -5.71158 2.2924 -5.15467 2.04633 -4.89564L2.99178 -8.66451ZM2.17584 -0.129514C1.76139 -0.129514 1.30809 -0.440349 1.30809 -1.45056C1.30809 -1.87796 1.34695 -2.12403 1.58007 -3.03064C1.61893 -3.199 1.82615 -4.0279 1.87796 -4.19626C1.90386 -4.29988 2.668 -5.45255 3.54869 -5.45255C4.11856 -5.45255 4.37758 -4.88269 4.37758 -4.20922C4.37758 -3.58755 4.01494 -2.12403 3.69116 -1.45056C3.36737 -0.751183 2.77161 -0.129514 2.17584 -0.129514Z' id='g2-98'/>
<path d='M3.66526 -1.85205C3.66526 -1.91681 3.61345 -1.96862 3.53574 -1.96862C3.41918 -1.96862 3.40623 -1.92976 3.34147 -1.70959C3.00473 -0.531009 2.47372 -0.129514 2.04633 -0.129514C1.89091 -0.129514 1.70959 -0.168369 1.70959 -0.556912C1.70959 -0.9066 1.86501 -1.29514 2.00747 -1.68369L2.91407 -4.09265C2.95293 -4.19626 3.04359 -4.42939 3.04359 -4.67547C3.04359 -5.21943 2.65504 -5.71158 2.02042 -5.71158C0.828892 -5.71158 0.349689 -3.83362 0.349689 -3.73001C0.349689 -3.67821 0.401494 -3.61345 0.492154 -3.61345C0.608717 -3.61345 0.621669 -3.66526 0.673474 -3.84658C0.984309 -4.9345 1.47646 -5.45255 1.98157 -5.45255C2.09813 -5.45255 2.31831 -5.4396 2.31831 -5.02516C2.31831 -4.68842 2.14994 -4.26102 2.04633 -3.97609L1.13973 -1.56712C1.06202 -1.3599 0.984309 -1.15268 0.984309 -0.919552C0.984309 -0.336737 1.3858 0.129514 2.00747 0.129514C3.199 0.129514 3.66526 -1.76139 3.66526 -1.85205ZM3.56164 -8.08169C3.56164 -8.27597 3.40623 -8.50909 3.1213 -8.50909C2.82341 -8.50909 2.48667 -8.22416 2.48667 -7.88742C2.48667 -7.56364 2.75866 -7.46002 2.91407 -7.46002C3.26376 -7.46002 3.56164 -7.79676 3.56164 -8.08169Z' id='g2-105'/>
<path d='M4.18847 -1.60468H3.93463C3.9165 -1.48682 3.84397 -0.951926 3.72611 -0.806871C3.67172 -0.725277 3.04616 -0.725277 2.86484 -0.725277H1.2511L2.14863 -1.57748C3.63545 -2.86484 4.18847 -3.34534 4.18847 -4.27007C4.18847 -5.31265 3.32721 -6.03793 2.21209 -6.03793C1.16951 -6.03793 0.462364 -5.21293 0.462364 -4.38793C0.462364 -3.93463 0.852201 -3.8893 0.933794 -3.8893C1.13325 -3.8893 1.40522 -4.03435 1.40522 -4.36073C1.40522 -4.63271 1.21484 -4.83216 0.933794 -4.83216C0.888464 -4.83216 0.861266 -4.83216 0.825003 -4.82309C1.04259 -5.46678 1.62281 -5.75689 2.11237 -5.75689C3.0371 -5.75689 3.35441 -4.89562 3.35441 -4.27007C3.35441 -3.34534 2.65633 -2.59287 2.22116 -2.12144L0.56209 -0.326375C0.462364 -0.226649 0.462364 -0.208517 0.462364 0H3.93463L4.18847 -1.60468Z' id='g3-50'/>
<path d='M5.16762 -2.99178H8.74222C8.92354 -2.99178 9.15666 -2.99178 9.15666 -3.22491C9.15666 -3.47098 8.93649 -3.47098 8.74222 -3.47098H5.16762V-7.04558C5.16762 -7.2269 5.16762 -7.46002 4.9345 -7.46002C4.68842 -7.46002 4.68842 -7.23985 4.68842 -7.04558V-3.47098H1.11382C0.932503 -3.47098 0.699377 -3.47098 0.699377 -3.23786C0.699377 -2.99178 0.919552 -2.99178 1.11382 -2.99178H4.68842V0.582814C4.68842 0.764134 4.68842 0.99726 4.92154 0.99726C5.16762 0.99726 5.16762 0.777086 5.16762 0.582814V-2.99178Z' id='g4-43'/>
<path d='M5.80224 -4.14446C5.80224 -5.21943 5.73748 -6.26849 5.27123 -7.2528C4.74022 -8.32777 3.80772 -8.6127 3.1731 -8.6127C2.42192 -8.6127 1.50237 -8.23711 1.02316 -7.16214C0.660523 -6.3462 0.531009 -5.54321 0.531009 -4.14446C0.531009 -2.88817 0.621669 -1.94271 1.08792 -1.02316C1.59303 -0.0388543 2.48667 0.27198 3.16015 0.27198C4.28692 0.27198 4.9345 -0.401494 5.31009 -1.15268C5.77634 -2.12403 5.80224 -3.39328 5.80224 -4.14446ZM3.16015 0.0129514C2.7457 0.0129514 1.90386 -0.220174 1.65778 -1.63188C1.51532 -2.40897 1.51532 -3.39328 1.51532 -4.29988C1.51532 -5.36189 1.51532 -6.3203 1.72254 -7.08443C1.94271 -7.95218 2.60324 -8.35367 3.16015 -8.35367C3.6523 -8.35367 4.40349 -8.05579 4.64956 -6.94197C4.81793 -6.20374 4.81793 -5.18057 4.81793 -4.29988C4.81793 -3.43213 4.81793 -2.44782 4.67547 -1.65778C4.42939 -0.233126 3.61345 0.0129514 3.16015 0.0129514Z' id='g4-48'/>
<path d='M5.69863 -2.17584H5.4137C5.37484 -1.95567 5.27123 -1.24334 5.14172 -1.03611C5.05106 -0.919552 4.31283 -0.919552 3.92428 -0.919552H1.52827C1.87796 -1.21743 2.668 -2.04633 3.00473 -2.35716C4.97335 -4.17036 5.69863 -4.84384 5.69863 -6.12603C5.69863 -7.61544 4.52005 -8.6127 3.01768 -8.6127S0.63462 -7.33051 0.63462 -6.21669C0.63462 -5.55616 1.20448 -5.55616 1.24334 -5.55616C1.51532 -5.55616 1.85205 -5.75044 1.85205 -6.16488C1.85205 -6.52752 1.60598 -6.7736 1.24334 -6.7736C1.12677 -6.7736 1.10087 -6.7736 1.06202 -6.76065C1.30809 -7.64134 2.00747 -8.23711 2.84932 -8.23711C3.95019 -8.23711 4.62366 -7.31756 4.62366 -6.12603C4.62366 -5.02516 3.98904 -4.06675 3.25081 -3.23786L0.63462 -0.310834V0H5.36189L5.69863 -2.17584Z' id='g4-50'/>
<path d='M2.38306 -4.64956C2.16289 -4.63661 2.11108 -4.62366 2.11108 -4.5071C2.11108 -4.37758 2.17584 -4.37758 2.40897 -4.37758H3.00473C4.1056 -4.37758 4.59776 -3.47098 4.59776 -2.22765C4.59776 -0.531009 3.71706 -0.0777086 3.08244 -0.0777086C2.46077 -0.0777086 1.39875 -0.375592 1.02316 -1.23039C1.43761 -1.16563 1.8132 -1.39875 1.8132 -1.86501C1.8132 -2.2406 1.54122 -2.49963 1.17858 -2.49963C0.867746 -2.49963 0.531009 -2.31831 0.531009 -1.82615C0.531009 -0.673474 1.68369 0.27198 3.1213 0.27198C4.66252 0.27198 5.80224 -0.9066 5.80224 -2.21469C5.80224 -3.40623 4.84384 -4.33873 3.6005 -4.5589C4.72727 -4.88269 5.45255 -5.82814 5.45255 -6.83836C5.45255 -7.86152 4.39054 -8.6127 3.13425 -8.6127C1.8391 -8.6127 0.880697 -7.82267 0.880697 -6.87721C0.880697 -6.35915 1.28219 -6.25554 1.47646 -6.25554C1.74844 -6.25554 2.05928 -6.44981 2.05928 -6.83836C2.05928 -7.2528 1.74844 -7.43412 1.46351 -7.43412C1.3858 -7.43412 1.3599 -7.43412 1.32105 -7.42117C1.8132 -8.30187 3.03064 -8.30187 3.09539 -8.30187C3.52279 -8.30187 4.36463 -8.1076 4.36463 -6.83836C4.36463 -6.59228 4.32578 -5.867 3.95019 -5.31009C3.56164 -4.74022 3.1213 -4.70137 2.77161 -4.68842L2.38306 -4.64956Z' id='g4-51'/>
<path d='M4.67547 -8.43138C4.67547 -8.67746 4.67547 -8.74222 4.49415 -8.74222C4.39054 -8.74222 4.35168 -8.74222 4.24807 -8.5868L0.349689 -2.53848V-2.16289H3.75592V-0.984309C3.75592 -0.505106 3.73001 -0.375592 2.78456 -0.375592H2.52553V0C2.82341 -0.0259029 3.84658 -0.0259029 4.20922 -0.0259029S5.60797 -0.0259029 5.90585 0V-0.375592H5.64682C4.71432 -0.375592 4.67547 -0.505106 4.67547 -0.984309V-2.16289H5.98356V-2.53848H4.67547V-8.43138ZM3.82067 -7.42117V-2.53848H0.673474L3.82067 -7.42117Z' id='g4-52'/>
<path d='M3.85953 -4.67547C4.5071 -5.02516 5.45255 -5.62092 5.45255 -6.70884C5.45255 -7.83562 4.36463 -8.6127 3.1731 -8.6127C1.89091 -8.6127 0.880697 -7.66725 0.880697 -6.48867C0.880697 -6.04832 1.01021 -5.60797 1.37285 -5.16762C1.51532 -4.99925 1.52827 -4.9863 2.43487 -4.35168C1.17858 -3.76887 0.531009 -2.90112 0.531009 -1.95567C0.531009 -0.582814 1.8391 0.27198 3.16015 0.27198C4.59776 0.27198 5.80224 -0.790037 5.80224 -2.14994C5.80224 -3.47098 4.86974 -4.0538 3.85953 -4.67547ZM2.09813 -5.8411C1.92976 -5.95766 1.41171 -6.2944 1.41171 -6.92902C1.41171 -7.77086 2.2924 -8.30187 3.16015 -8.30187C4.09265 -8.30187 4.92154 -7.62839 4.92154 -6.69589C4.92154 -5.90585 4.35168 -5.27123 3.6005 -4.85679L2.09813 -5.8411ZM2.70685 -4.17036L4.27397 -3.1472C4.61071 -2.92702 5.20648 -2.52553 5.20648 -1.73549C5.20648 -0.751183 4.20922 -0.0777086 3.1731 -0.0777086C2.07223 -0.0777086 1.12677 -0.880697 1.12677 -1.95567C1.12677 -2.96588 1.86501 -3.78182 2.70685 -4.17036Z' id='g4-56'/>
<path d='M8.74222 -4.19626C8.92354 -4.19626 9.15666 -4.19626 9.15666 -4.42939C9.15666 -4.67547 8.93649 -4.67547 8.74222 -4.67547H1.11382C0.932503 -4.67547 0.699377 -4.67547 0.699377 -4.44234C0.699377 -4.19626 0.919552 -4.19626 1.11382 -4.19626H8.74222ZM8.74222 -1.7873C8.92354 -1.7873 9.15666 -1.7873 9.15666 -2.02042C9.15666 -2.2665 8.93649 -2.2665 8.74222 -2.2665H1.11382C0.932503 -2.2665 0.699377 -2.2665 0.699377 -2.03337C0.699377 -1.7873 0.919552 -1.7873 1.11382 -1.7873H8.74222Z' id='g4-61'/>
<path d='M2.22765 -5.20648H3.69116V-5.58207H2.20174V-7.09738C2.20174 -8.26301 2.79751 -8.85878 3.32852 -8.85878C3.43213 -8.85878 3.6264 -8.83288 3.78182 -8.75517C3.73001 -8.74222 3.40623 -8.62565 3.40623 -8.25006C3.40623 -7.95218 3.61345 -7.74496 3.91133 -7.74496C4.22217 -7.74496 4.42939 -7.95218 4.42939 -8.26301C4.42939 -8.74222 3.96314 -9.11781 3.34147 -9.11781C2.43487 -9.11781 1.41171 -8.41843 1.41171 -7.09738V-5.58207H0.401494V-5.20648H1.41171V-0.958406C1.41171 -0.375592 1.26924 -0.375592 0.427397 -0.375592V0C0.790037 -0.0259029 1.50237 -0.0259029 1.89091 -0.0259029C2.2406 -0.0259029 3.16015 -0.0259029 3.45803 0V-0.375592H3.199C2.25355 -0.375592 2.22765 -0.518057 2.22765 -0.984309V-5.20648Z' id='g4-102'/>
<path d='M5.94471 -2.77161C5.94471 -4.44234 4.67547 -5.77634 3.1731 -5.77634C1.61893 -5.77634 0.388543 -4.40349 0.388543 -2.77161C0.388543 -1.11382 1.68369 0.129514 3.16015 0.129514C4.68842 0.129514 5.94471 -1.13973 5.94471 -2.77161ZM3.1731 -0.155417C2.6939 -0.155417 2.11108 -0.36264 1.73549 -0.99726C1.3858 -1.58007 1.37285 -2.34421 1.37285 -2.88817C1.37285 -3.38032 1.37285 -4.17036 1.77435 -4.75318C2.13699 -5.31009 2.70685 -5.51731 3.16015 -5.51731C3.66526 -5.51731 4.20922 -5.28418 4.5589 -4.77908C4.9604 -4.18331 4.9604 -3.36737 4.9604 -2.88817C4.9604 -2.43487 4.9604 -1.63188 4.62366 -1.02316C4.26102 -0.401494 3.66526 -0.155417 3.1731 -0.155417Z' id='g4-111'/>
<path d='M2.16289 -3.01768C2.16289 -4.27397 2.68095 -5.45255 3.67821 -5.45255C3.78182 -5.45255 3.80772 -5.45255 3.85953 -5.4396C3.75592 -5.3878 3.54869 -5.31009 3.54869 -4.9604C3.54869 -4.58481 3.84658 -4.44234 4.0538 -4.44234C4.31283 -4.44234 4.57186 -4.61071 4.57186 -4.9604C4.57186 -5.34894 4.22217 -5.71158 3.66526 -5.71158C2.56438 -5.71158 2.18879 -4.52005 2.11108 -4.27397H2.09813V-5.71158L0.36264 -5.56912V-5.19352C1.24334 -5.19352 1.34695 -5.10286 1.34695 -4.46824V-0.958406C1.34695 -0.375592 1.20448 -0.375592 0.36264 -0.375592V0C0.72528 -0.0259029 1.43761 -0.0259029 1.82615 -0.0259029C2.17584 -0.0259029 3.09539 -0.0259029 3.39328 0V-0.375592H3.13425C2.18879 -0.375592 2.16289 -0.518057 2.16289 -0.984309V-3.01768Z' id='g4-114'/>
</defs>
<g id='page1'>
<use x='56.4133' xlink:href='#g2-98' y='65.7534'/>
<use x='61.8051' xlink:href='#g1-105' y='67.6961'/>
<use x='69.0892' xlink:href='#g4-61' y='65.7534'/>
<use x='82.5502' xlink:href='#g4-51' y='65.7534'/>
<use x='88.8909' xlink:href='#g2-105' y='65.7534'/>
<use x='93.2171' xlink:href='#g3-50' y='60.4059'/>
<use x='101.252' xlink:href='#g0-0' y='65.7534'/>
<use x='114.204' xlink:href='#g4-52' y='65.7534'/>
<use x='120.544' xlink:href='#g2-105' y='65.7534'/>
<use x='127.749' xlink:href='#g4-43' y='65.7534'/>
<use x='140.49' xlink:href='#g4-50' y='65.7534'/>
<use x='146.831' xlink:href='#g2-59' y='65.7534'/>
<use x='160.966' xlink:href='#g4-102' y='65.7534'/>
<use x='164.841' xlink:href='#g4-111' y='65.7534'/>
<use x='171.182' xlink:href='#g4-114' y='65.7534'/>
<use x='184.568' xlink:href='#g4-48' y='65.7534'/>
<use x='194.506' xlink:href='#g0-20' y='65.7534'/>
<use x='208.177' xlink:href='#g2-105' y='65.7534'/>
<use x='216.101' xlink:href='#g2-60' y='65.7534'/>
<use x='229.562' xlink:href='#g4-56' y='65.7534'/>
<use x='235.903' xlink:href='#g2-58' y='65.7534'/>
</g>
</svg>