<?xml version='1.0' encoding='UTF-8'?>
<!-- This file was generated by dvisvgm 2.1.3 -->
<svg height='10.0853pt' version='1.1' viewBox='56.4133 55.6681 22.5449 10.0853' width='22.5449pt' xmlns='http://www.w3.org/2000/svg' xmlns:xlink='http://www.w3.org/1999/xlink'>
<defs>
<path d='M2.38306 -0.621669C2.38306 -0.99726 2.07223 -1.25629 1.76139 -1.25629C1.3858 -1.25629 1.12677 -0.945455 1.12677 -0.63462C1.12677 -0.259029 1.43761 0 1.74844 0C2.12403 0 2.38306 -0.310834 2.38306 -0.621669Z' id='g0-58'/>
<path d='M5.45255 -7.21395V-7.58954H0.880697V-7.21395H5.45255Z' id='g1-22'/>
<path d='M3.73001 -8.30187C3.73001 -8.59975 3.73001 -8.6127 3.47098 -8.6127C3.16015 -8.26301 2.51258 -7.78381 1.17858 -7.78381V-7.40822C1.47646 -7.40822 2.12403 -7.40822 2.83636 -7.74496V-0.99726C2.83636 -0.531009 2.79751 -0.375592 1.65778 -0.375592H1.25629V0C1.60598 -0.0259029 2.86227 -0.0259029 3.28966 -0.0259029S4.9604 -0.0259029 5.31009 0V-0.375592H4.90859C3.76887 -0.375592 3.73001 -0.531009 3.73001 -0.99726V-8.30187Z' id='g1-49'/>
<path d='M1.59303 -4.5071C1.59303 -7.78381 3.18605 -8.30187 3.88543 -8.30187C4.35168 -8.30187 4.81793 -8.1594 5.06401 -7.77086C4.90859 -7.77086 4.41644 -7.77086 4.41644 -7.23985C4.41644 -6.95492 4.61071 -6.70884 4.94745 -6.70884C5.27123 -6.70884 5.49141 -6.90311 5.49141 -7.2787C5.49141 -7.95218 4.99925 -8.6127 3.87248 -8.6127C2.2406 -8.6127 0.531009 -6.94197 0.531009 -4.09265C0.531009 -0.531009 2.08518 0.27198 3.18605 0.27198C4.59776 0.27198 5.80224 -0.958406 5.80224 -2.64209C5.80224 -4.36463 4.59776 -5.51731 3.30262 -5.51731C2.14994 -5.51731 1.72254 -4.52005 1.59303 -4.15741V-4.5071ZM3.18605 -0.0777086C2.37011 -0.0777086 1.98157 -0.802989 1.86501 -1.07497C1.74844 -1.41171 1.61893 -2.04633 1.61893 -2.95293C1.61893 -3.97609 2.08518 -5.25828 3.25081 -5.25828C3.96314 -5.25828 4.33873 -4.77908 4.533 -4.33873C4.74022 -3.85953 4.74022 -3.21196 4.74022 -2.65504C4.74022 -1.99452 4.74022 -1.41171 4.49415 -0.919552C4.17036 -0.297883 3.70411 -0.0777086 3.18605 -0.0777086Z' id='g1-54'/>
</defs>
<g id='page1'>
<use x='56.4133' xlink:href='#g1-49' y='65.7534'/>
<use x='62.754' xlink:href='#g0-58' y='65.7534'/>
<use x='66.2766' xlink:href='#g1-54' y='65.7534'/>
<use x='72.6174' xlink:href='#g1-22' y='62.9833'/>
<use x='72.6174' xlink:href='#g1-54' y='65.7534'/>
</g>
</svg>