<?xml version='1.0' encoding='UTF-8'?>
<!-- This file was generated by dvisvgm 2.1.3 -->
<svg height='14.3824pt' version='1.1' viewBox='60.6404 54.3163 76.0245 14.3824' width='76.0245pt' xmlns='http://www.w3.org/2000/svg' xmlns:xlink='http://www.w3.org/1999/xlink'>
<defs>
<path d='M5.03811 11.0735L2.75866 6.03537C2.668 5.82814 2.60324 5.82814 2.56438 5.82814C2.55143 5.82814 2.48667 5.82814 2.34421 5.93176L1.11382 6.86426C0.945455 6.99377 0.945455 7.03263 0.945455 7.07148C0.945455 7.13624 0.984309 7.21395 1.07497 7.21395C1.15268 7.21395 1.37285 7.03263 1.51532 6.92902C1.59303 6.86426 1.7873 6.72179 1.92976 6.61818L4.4812 12.2262C4.57186 12.4334 4.63661 12.4334 4.75318 12.4334C4.94745 12.4334 4.9863 12.3557 5.07696 12.1743L10.9569 0C11.0476 -0.18132 11.0476 -0.233126 11.0476 -0.259029C11.0476 -0.388543 10.944 -0.518057 10.7885 -0.518057C10.6849 -0.518057 10.5943 -0.4533 10.4907 -0.246077L5.03811 11.0735Z' id='g0-112'/>
<path d='M1.71347 -1.42336C1.81319 -1.84946 1.98545 -2.51127 1.99451 -2.5838C2.01264 -2.6382 2.23929 -3.07336 2.56567 -3.39067C2.82858 -3.63545 3.17309 -3.78051 3.52666 -3.78051C4.01622 -3.78051 4.01622 -3.30001 4.01622 -3.14589C4.01622 -2.59287 3.59012 -1.48682 3.4904 -1.20577C3.3816 -0.924728 3.34534 -0.834069 3.34534 -0.661815C3.34534 -0.172253 3.71704 0.0997256 4.12501 0.0997256C4.99535 0.0997256 5.34892 -1.19671 5.34892 -1.29643C5.34892 -1.34176 5.32172 -1.40522 5.23106 -1.40522C5.13134 -1.40522 5.12227 -1.35989 5.08601 -1.24204C4.85936 -0.47143 4.47859 -0.126923 4.15221 -0.126923C4.08875 -0.126923 3.92556 -0.126923 3.92556 -0.417034C3.92556 -0.643683 4.01622 -0.879398 4.08875 -1.07885C4.27007 -1.54121 4.63271 -2.50221 4.63271 -3.0099C4.63271 -3.81677 4.03435 -4.00716 3.55386 -4.00716C2.71072 -4.00716 2.26649 -3.4088 2.12144 -3.21842C2.06704 -3.70798 1.69534 -4.00716 1.24204 -4.00716C0.861266 -4.00716 0.670881 -3.72611 0.543958 -3.48133C0.389836 -3.16402 0.262913 -2.64726 0.262913 -2.611C0.262913 -2.5294 0.326375 -2.50221 0.389836 -2.50221C0.489562 -2.50221 0.507694 -2.54754 0.553024 -2.72885C0.725277 -3.44507 0.915662 -3.78051 1.22391 -3.78051C1.49588 -3.78051 1.49588 -3.4904 1.49588 -3.35441C1.49588 -3.16402 1.42336 -2.88298 1.36896 -2.64726C1.3055 -2.41155 1.21484 -2.02171 1.17858 -1.91292L0.815937 -0.4261C0.752475 -0.208517 0.752475 -0.190385 0.752475 -0.163187C0.752475 -0.0453298 0.834069 0.0997256 1.03352 0.0997256C1.16044 0.0997256 1.29643 0.0181319 1.35989 -0.0906596C1.38709 -0.145055 1.45962 -0.435166 1.50495 -0.616485L1.71347 -1.42336Z' id='g1-110'/>
<path d='M2.668 -3.79477C2.6939 -3.87248 3.01768 -4.52005 3.49689 -4.9345C3.83362 -5.24533 4.27397 -5.45255 4.77908 -5.45255C5.29714 -5.45255 5.47846 -5.06401 5.47846 -4.54595C5.47846 -3.80772 4.94745 -2.33126 4.68842 -1.63188C4.57186 -1.32105 4.5071 -1.15268 4.5071 -0.919552C4.5071 -0.336737 4.90859 0.129514 5.53026 0.129514C6.73474 0.129514 7.18804 -1.77435 7.18804 -1.85205C7.18804 -1.91681 7.13624 -1.96862 7.05853 -1.96862C6.94197 -1.96862 6.92902 -1.92976 6.86426 -1.70959C6.56638 -0.647572 6.07422 -0.129514 5.56912 -0.129514C5.4396 -0.129514 5.23238 -0.142466 5.23238 -0.556912C5.23238 -0.880697 5.37484 -1.26924 5.45255 -1.45056C5.71158 -2.16289 6.25554 -3.61345 6.25554 -4.35168C6.25554 -5.12877 5.80224 -5.71158 4.81793 -5.71158C3.66526 -5.71158 3.05654 -4.89564 2.82341 -4.57186C2.78456 -5.31009 2.25355 -5.71158 1.68369 -5.71158C1.26924 -5.71158 0.984309 -5.4655 0.764134 -5.02516C0.531009 -4.5589 0.349689 -3.78182 0.349689 -3.73001S0.401494 -3.61345 0.492154 -3.61345C0.595766 -3.61345 0.608717 -3.6264 0.686426 -3.92428C0.893649 -4.71432 1.12677 -5.45255 1.64483 -5.45255C1.94271 -5.45255 2.04633 -5.24533 2.04633 -4.85679C2.04633 -4.57186 1.91681 -4.06675 1.82615 -3.66526L1.46351 -2.2665C1.41171 -2.02042 1.26924 -1.43761 1.20448 -1.20448C1.11382 -0.867746 0.971357 -0.259029 0.971357 -0.194271C0.971357 -0.0129514 1.11382 0.129514 1.30809 0.129514C1.46351 0.129514 1.64483 0.0518057 1.74844 -0.142466C1.77435 -0.207223 1.89091 -0.660523 1.95567 -0.919552L2.2406 -2.08518L2.668 -3.79477Z' id='g2-110'/>
<path d='M3.40623 1.45056C3.05654 1.94271 2.55143 2.38306 1.91681 2.38306C1.76139 2.38306 1.13973 2.35716 0.945455 1.76139C0.984309 1.77435 1.04907 1.77435 1.07497 1.77435C1.46351 1.77435 1.72254 1.43761 1.72254 1.13973S1.47646 0.738232 1.28219 0.738232C1.07497 0.738232 0.621669 0.893649 0.621669 1.52827C0.621669 2.18879 1.17858 2.64209 1.91681 2.64209C3.21196 2.64209 4.52005 1.45056 4.88269 0.0129514L6.15193 -5.03811C6.16488 -5.10286 6.19078 -5.18057 6.19078 -5.25828C6.19078 -5.45255 6.03537 -5.58207 5.8411 -5.58207C5.72453 -5.58207 5.45255 -5.53026 5.34894 -5.14172L4.39054 -1.334C4.32578 -1.10087 4.32578 -1.07497 4.22217 -0.932503C3.96314 -0.569863 3.53574 -0.129514 2.91407 -0.129514C2.18879 -0.129514 2.12403 -0.841843 2.12403 -1.19153C2.12403 -1.92976 2.47372 -2.92702 2.82341 -3.85953C2.96588 -4.23512 3.04359 -4.41644 3.04359 -4.67547C3.04359 -5.21943 2.65504 -5.71158 2.02042 -5.71158C0.828892 -5.71158 0.349689 -3.83362 0.349689 -3.73001C0.349689 -3.67821 0.401494 -3.61345 0.492154 -3.61345C0.608717 -3.61345 0.621669 -3.66526 0.673474 -3.84658C0.984309 -4.9345 1.47646 -5.45255 1.98157 -5.45255C2.09813 -5.45255 2.31831 -5.45255 2.31831 -5.02516C2.31831 -4.68842 2.17584 -4.31283 1.98157 -3.82067C1.34695 -2.12403 1.34695 -1.69664 1.34695 -1.3858C1.34695 -0.155417 2.22765 0.129514 2.87522 0.129514C3.25081 0.129514 3.71706 0.0129514 4.17036 -0.466252L4.18331 -0.4533C3.98904 0.310834 3.85953 0.81594 3.40623 1.45056Z' id='g2-121'/>
<path d='M5.16762 -2.99178H8.74222C8.92354 -2.99178 9.15666 -2.99178 9.15666 -3.22491C9.15666 -3.47098 8.93649 -3.47098 8.74222 -3.47098H5.16762V-7.04558C5.16762 -7.2269 5.16762 -7.46002 4.9345 -7.46002C4.68842 -7.46002 4.68842 -7.23985 4.68842 -7.04558V-3.47098H1.11382C0.932503 -3.47098 0.699377 -3.47098 0.699377 -3.23786C0.699377 -2.99178 0.919552 -2.99178 1.11382 -2.99178H4.68842V0.582814C4.68842 0.764134 4.68842 0.99726 4.92154 0.99726C5.16762 0.99726 5.16762 0.777086 5.16762 0.582814V-2.99178Z' id='g3-43'/>
<path d='M3.73001 -8.30187C3.73001 -8.59975 3.73001 -8.6127 3.47098 -8.6127C3.16015 -8.26301 2.51258 -7.78381 1.17858 -7.78381V-7.40822C1.47646 -7.40822 2.12403 -7.40822 2.83636 -7.74496V-0.99726C2.83636 -0.531009 2.79751 -0.375592 1.65778 -0.375592H1.25629V0C1.60598 -0.0259029 2.86227 -0.0259029 3.28966 -0.0259029S4.9604 -0.0259029 5.31009 0V-0.375592H4.90859C3.76887 -0.375592 3.73001 -0.531009 3.73001 -0.99726V-8.30187Z' id='g3-49'/>
<path d='M4.67547 -8.43138C4.67547 -8.67746 4.67547 -8.74222 4.49415 -8.74222C4.39054 -8.74222 4.35168 -8.74222 4.24807 -8.5868L0.349689 -2.53848V-2.16289H3.75592V-0.984309C3.75592 -0.505106 3.73001 -0.375592 2.78456 -0.375592H2.52553V0C2.82341 -0.0259029 3.84658 -0.0259029 4.20922 -0.0259029S5.60797 -0.0259029 5.90585 0V-0.375592H5.64682C4.71432 -0.375592 4.67547 -0.505106 4.67547 -0.984309V-2.16289H5.98356V-2.53848H4.67547V-8.43138ZM3.82067 -7.42117V-2.53848H0.673474L3.82067 -7.42117Z' id='g3-52'/>
<path d='M8.74222 -4.19626C8.92354 -4.19626 9.15666 -4.19626 9.15666 -4.42939C9.15666 -4.67547 8.93649 -4.67547 8.74222 -4.67547H1.11382C0.932503 -4.67547 0.699377 -4.67547 0.699377 -4.44234C0.699377 -4.19626 0.919552 -4.19626 1.11382 -4.19626H8.74222ZM8.74222 -1.7873C8.92354 -1.7873 9.15666 -1.7873 9.15666 -2.02042C9.15666 -2.2665 8.93649 -2.2665 8.74222 -2.2665H1.11382C0.932503 -2.2665 0.699377 -2.2665 0.699377 -2.03337C0.699377 -1.7873 0.919552 -1.7873 1.11382 -1.7873H8.74222Z' id='g3-61'/>
</defs>
<g id='page1'>
<use x='60.6404' xlink:href='#g2-121' y='66.1803'/>
<use x='66.8238' xlink:href='#g1-110' y='68.123'/>
<use x='76.5402' xlink:href='#g3-61' y='66.1803'/>
<use x='90.0012' xlink:href='#g0-112' y='54.8343'/>
<rect height='0.518031' width='13.9106' x='100.794' y='54.3163'/>
<use x='100.794' xlink:href='#g3-52' y='66.1803'/>
<use x='107.135' xlink:href='#g2-110' y='66.1803'/>
<use x='117.583' xlink:href='#g3-43' y='66.1803'/>
<use x='130.324' xlink:href='#g3-49' y='66.1803'/>
</g>
</svg>