<?xml version='1.0' encoding='UTF-8'?>
<!-- This file was generated by dvisvgm 2.1.3 -->
<svg height='12.9514pt' version='1.1' viewBox='56.4133 56.0399 65.4011 12.9514' width='65.4011pt' xmlns='http://www.w3.org/2000/svg' xmlns:xlink='http://www.w3.org/1999/xlink'>
<defs>
<path d='M4.57186 -5.72453V-5.16762C5.37484 -5.16762 5.4655 -5.16762 5.4655 -4.66252V-2.12403C5.4655 -1.13973 4.88269 -0.349689 3.87248 -0.349689C2.90112 -0.349689 2.84932 -0.673474 2.84932 -1.3858V-5.82814L0.54396 -5.72453V-5.16762C1.34695 -5.16762 1.43761 -5.16762 1.43761 -4.66252V-1.59303C1.43761 -0.297883 2.30535 0.0777086 3.69116 0.0777086C4.00199 0.0777086 4.9604 0.0777086 5.51731 -0.971357H5.53026V0.0777086L7.77086 0V-0.556912C6.96787 -0.556912 6.87721 -0.556912 6.87721 -1.06202V-5.82814L4.57186 -5.72453Z' id='g0-117'/>
<path d='M4.20922 3.1472C4.20922 3.10834 4.20922 3.08244 3.98904 2.86227C2.6939 1.55417 1.96862 -0.582814 1.96862 -3.22491C1.96862 -5.73748 2.57733 -7.90037 4.0797 -9.42864C4.20922 -9.54521 4.20922 -9.57111 4.20922 -9.60996C4.20922 -9.68767 4.14446 -9.71357 4.09265 -9.71357C3.92428 -9.71357 2.86227 -8.78107 2.22765 -7.51183C1.56712 -6.20374 1.26924 -4.81793 1.26924 -3.22491C1.26924 -2.07223 1.45056 -0.531009 2.12403 0.854795C2.88817 2.40897 3.95019 3.25081 4.09265 3.25081C4.14446 3.25081 4.20922 3.22491 4.20922 3.1472Z' id='g2-40'/>
<path d='M3.6523 -3.22491C3.6523 -4.20922 3.52279 -5.81519 2.79751 -7.31756C2.03337 -8.87173 0.971357 -9.71357 0.828892 -9.71357C0.777086 -9.71357 0.712329 -9.68767 0.712329 -9.60996C0.712329 -9.57111 0.712329 -9.54521 0.932503 -9.32503C2.22765 -8.01694 2.95293 -5.87995 2.95293 -3.23786C2.95293 -0.72528 2.34421 1.43761 0.841843 2.96588C0.712329 3.08244 0.712329 3.10834 0.712329 3.1472C0.712329 3.22491 0.777086 3.25081 0.828892 3.25081C0.99726 3.25081 2.05928 2.31831 2.6939 1.04907C3.35442 -0.27198 3.6523 -1.67073 3.6523 -3.22491Z' id='g2-41'/>
<path d='M5.69863 -2.17584H5.4137C5.37484 -1.95567 5.27123 -1.24334 5.14172 -1.03611C5.05106 -0.919552 4.31283 -0.919552 3.92428 -0.919552H1.52827C1.87796 -1.21743 2.668 -2.04633 3.00473 -2.35716C4.97335 -4.17036 5.69863 -4.84384 5.69863 -6.12603C5.69863 -7.61544 4.52005 -8.6127 3.01768 -8.6127S0.63462 -7.33051 0.63462 -6.21669C0.63462 -5.55616 1.20448 -5.55616 1.24334 -5.55616C1.51532 -5.55616 1.85205 -5.75044 1.85205 -6.16488C1.85205 -6.52752 1.60598 -6.7736 1.24334 -6.7736C1.12677 -6.7736 1.10087 -6.7736 1.06202 -6.76065C1.30809 -7.64134 2.00747 -8.23711 2.84932 -8.23711C3.95019 -8.23711 4.62366 -7.31756 4.62366 -6.12603C4.62366 -5.02516 3.98904 -4.06675 3.25081 -3.23786L0.63462 -0.310834V0H5.36189L5.69863 -2.17584Z' id='g2-50'/>
<path d='M4.67547 -8.43138C4.67547 -8.67746 4.67547 -8.74222 4.49415 -8.74222C4.39054 -8.74222 4.35168 -8.74222 4.24807 -8.5868L0.349689 -2.53848V-2.16289H3.75592V-0.984309C3.75592 -0.505106 3.73001 -0.375592 2.78456 -0.375592H2.52553V0C2.82341 -0.0259029 3.84658 -0.0259029 4.20922 -0.0259029S5.60797 -0.0259029 5.90585 0V-0.375592H5.64682C4.71432 -0.375592 4.67547 -0.505106 4.67547 -0.984309V-2.16289H5.98356V-2.53848H4.67547V-8.43138ZM3.82067 -7.42117V-2.53848H0.673474L3.82067 -7.42117Z' id='g2-52'/>
<path d='M1.59303 -4.5071C1.59303 -7.78381 3.18605 -8.30187 3.88543 -8.30187C4.35168 -8.30187 4.81793 -8.1594 5.06401 -7.77086C4.90859 -7.77086 4.41644 -7.77086 4.41644 -7.23985C4.41644 -6.95492 4.61071 -6.70884 4.94745 -6.70884C5.27123 -6.70884 5.49141 -6.90311 5.49141 -7.2787C5.49141 -7.95218 4.99925 -8.6127 3.87248 -8.6127C2.2406 -8.6127 0.531009 -6.94197 0.531009 -4.09265C0.531009 -0.531009 2.08518 0.27198 3.18605 0.27198C4.59776 0.27198 5.80224 -0.958406 5.80224 -2.64209C5.80224 -4.36463 4.59776 -5.51731 3.30262 -5.51731C2.14994 -5.51731 1.72254 -4.52005 1.59303 -4.15741V-4.5071ZM3.18605 -0.0777086C2.37011 -0.0777086 1.98157 -0.802989 1.86501 -1.07497C1.74844 -1.41171 1.61893 -2.04633 1.61893 -2.95293C1.61893 -3.97609 2.08518 -5.25828 3.25081 -5.25828C3.96314 -5.25828 4.33873 -4.77908 4.533 -4.33873C4.74022 -3.85953 4.74022 -3.21196 4.74022 -2.65504C4.74022 -1.99452 4.74022 -1.41171 4.49415 -0.919552C4.17036 -0.297883 3.70411 -0.0777086 3.18605 -0.0777086Z' id='g2-54'/>
<path d='M8.74222 -4.19626C8.92354 -4.19626 9.15666 -4.19626 9.15666 -4.42939C9.15666 -4.67547 8.93649 -4.67547 8.74222 -4.67547H1.11382C0.932503 -4.67547 0.699377 -4.67547 0.699377 -4.44234C0.699377 -4.19626 0.919552 -4.19626 1.11382 -4.19626H8.74222ZM8.74222 -1.7873C8.92354 -1.7873 9.15666 -1.7873 9.15666 -2.02042C9.15666 -2.2665 8.93649 -2.2665 8.74222 -2.2665H1.11382C0.932503 -2.2665 0.699377 -2.2665 0.699377 -2.03337C0.699377 -1.7873 0.919552 -1.7873 1.11382 -1.7873H8.74222Z' id='g2-61'/>
<path d='M2.52553 0.0518057C2.52553 -0.699377 2.27945 -1.25629 1.74844 -1.25629C1.334 -1.25629 1.12677 -0.919552 1.12677 -0.63462S1.32105 0 1.76139 0C1.92976 0 2.07223 -0.0518057 2.18879 -0.168369C2.21469 -0.194271 2.22765 -0.194271 2.2406 -0.194271C2.2665 -0.194271 2.2665 -0.0129514 2.2665 0.0518057C2.2665 0.479203 2.18879 1.32105 1.43761 2.16289C1.29514 2.31831 1.29514 2.34421 1.29514 2.37011C1.29514 2.43487 1.3599 2.49963 1.42466 2.49963C1.52827 2.49963 2.52553 1.54122 2.52553 0.0518057Z' id='g1-59'/>
</defs>
<g id='page1'>
<use x='56.4133' xlink:href='#g0-117' y='65.7534'/>
<use x='68.1055' xlink:href='#g2-61' y='65.7534'/>
<use x='81.5664' xlink:href='#g2-40' y='65.7534'/>
<use x='86.4981' xlink:href='#g2-50' y='65.7534'/>
<use x='92.8389' xlink:href='#g1-59' y='65.7534'/>
<use x='98.52' xlink:href='#g2-52' y='65.7534'/>
<use x='104.861' xlink:href='#g1-59' y='65.7534'/>
<use x='110.542' xlink:href='#g2-54' y='65.7534'/>
<use x='116.883' xlink:href='#g2-41' y='65.7534'/>
</g>
</svg>