<?xml version='1.0' encoding='UTF-8'?>
<!-- This file was generated by dvisvgm 2.1.3 -->
<svg height='8.92209pt' version='1.1' viewBox='56.4133 56.8313 9.35384 8.92209' width='9.35384pt' xmlns='http://www.w3.org/2000/svg' xmlns:xlink='http://www.w3.org/1999/xlink'>
<defs>
<path d='M8.50909 -8.69041C8.50909 -8.91059 8.50909 -9.11781 8.28892 -9.11781C8.27597 -9.11781 8.08169 -9.11781 8.05579 -8.88468C8.01694 -8.52204 7.71905 -8.52204 7.62839 -8.52204C7.17509 -8.52204 6.72179 -8.71631 6.46276 -8.83288C5.80224 -9.11781 5.24533 -9.11781 5.03811 -9.11781C2.87522 -9.11781 0.479203 -7.75791 0.479203 -4.44234C0.479203 -1.13973 2.82341 0.246077 5.06401 0.246077C5.75044 0.246077 6.66999 0.103611 7.61544 -0.466252C8.21121 -0.841843 8.87173 -1.48941 8.87173 -1.67073S8.67746 -1.92976 8.59975 -1.92976C8.50909 -1.92976 8.45729 -1.89091 8.32777 -1.74844C7.57659 -0.893649 6.42391 -0.375592 5.27123 -0.375592C3.26376 -0.375592 2.75866 -2.40897 2.75866 -4.41644C2.75866 -6.96787 3.69116 -8.66451 5.07696 -8.66451C6.04832 -8.66451 7.60249 -7.71905 8.04284 -6.3462C8.08169 -6.22964 8.12055 -6.10012 8.28892 -6.10012C8.50909 -6.10012 8.50909 -6.30735 8.50909 -6.52752V-8.69041ZM8.05579 -7.35641C7.90037 -7.57659 7.732 -7.74496 7.40822 -8.08169C7.47298 -8.06874 7.57659 -8.06874 7.64134 -8.06874C7.78381 -8.06874 7.95218 -8.09465 8.05579 -8.1594V-7.35641ZM3.45803 -8.36663C3.16015 -8.06874 2.30535 -6.95492 2.30535 -4.41644C2.30535 -3.13425 2.49963 -1.34695 3.66526 -0.414446C1.54122 -1.10087 0.932503 -2.84932 0.932503 -4.42939C0.932503 -6.81245 2.2406 -7.96513 3.45803 -8.37958V-8.36663Z' id='g0-67'/>
</defs>
<g id='page1'>
<use x='56.4133' xlink:href='#g0-67' y='65.7534'/>
</g>
</svg>