<?xml version='1.0' encoding='UTF-8'?>
<!-- This file was generated by dvisvgm 2.1.3 -->
<svg height='11.6964pt' version='1.1' viewBox='64.8676 54.5634 72.6156 11.6964' width='72.6156pt' xmlns='http://www.w3.org/2000/svg' xmlns:xlink='http://www.w3.org/1999/xlink'>
<defs>
<path d='M3.78182 -5.10286C3.61345 -4.57186 3.40623 -3.95019 3.32852 -3.52279H3.31557C3.21196 -4.17036 2.08518 -7.56364 2.05928 -7.61544C1.91681 -7.91333 1.65778 -7.91333 1.43761 -7.91333H0.751183C0.569863 -7.91333 0.220174 -7.91333 0.220174 -7.53773S0.54396 -7.16214 0.880697 -7.16214V-0.751183C0.54396 -0.751183 0.220174 -0.751183 0.220174 -0.375592S0.569863 0 0.751183 0H1.73549C1.91681 0 2.2665 0 2.2665 -0.375592S1.94271 -0.751183 1.60598 -0.751183V-7.00672H1.61893C1.69664 -6.60523 1.73549 -6.46276 1.89091 -5.99651L2.81046 -3.10834C2.83636 -3.00473 2.95293 -2.64209 3.32852 -2.64209C3.48394 -2.64209 3.70411 -2.7457 3.80772 -2.97883C3.87248 -3.1731 5.05106 -6.7995 5.05106 -6.98082V-0.751183C4.71432 -0.751183 4.39054 -0.751183 4.39054 -0.375592S4.74022 0 4.92154 0H5.90585C6.08717 0 6.43686 0 6.43686 -0.375592S6.11308 -0.751183 5.77634 -0.751183V-7.16214C6.11308 -7.16214 6.43686 -7.16214 6.43686 -7.53773S6.08717 -7.91333 5.90585 -7.91333H5.21943C4.71432 -7.91333 4.63661 -7.75791 4.533 -7.42117L3.78182 -5.10286Z' id='g0-77'/>
<path d='M3.91133 -7.34346C3.91133 -7.66725 3.6523 -7.92628 3.32852 -7.92628S2.7457 -7.66725 2.7457 -7.34346S3.00473 -6.76065 3.32852 -6.76065S3.91133 -7.01968 3.91133 -7.34346ZM1.68369 -5.58207C1.50237 -5.58207 1.16563 -5.58207 1.16563 -5.20648S1.50237 -4.83088 1.68369 -4.83088H3.06949V-0.751183H1.59303C1.41171 -0.751183 1.06202 -0.751183 1.06202 -0.375592S1.41171 0 1.59303 0H5.19352C5.37484 0 5.71158 0 5.71158 -0.375592S5.37484 -0.751183 5.19352 -0.751183H3.91133V-5.05106C3.91133 -5.45255 3.83362 -5.58207 3.39328 -5.58207H1.68369Z' id='g0-105'/>
<path d='M5.4137 -3.79477C5.4137 -5.06401 4.81793 -5.65978 3.75592 -5.65978C2.87522 -5.65978 2.30535 -5.16762 2.08518 -4.92154C2.08518 -5.40075 2.08518 -5.58207 1.56712 -5.58207H0.712329C0.531009 -5.58207 0.194271 -5.58207 0.194271 -5.20648S0.531009 -4.83088 0.712329 -4.83088H1.24334V-0.751183H0.712329C0.531009 -0.751183 0.194271 -0.751183 0.194271 -0.375592S0.531009 0 0.712329 0H2.61619C2.79751 0 3.13425 0 3.13425 -0.375592S2.79751 -0.751183 2.61619 -0.751183H2.08518V-3.09539C2.08518 -4.35168 2.96588 -4.90859 3.66526 -4.90859C4.41644 -4.90859 4.57186 -4.4812 4.57186 -3.74296V-0.751183H4.04085C3.85953 -0.751183 3.52279 -0.751183 3.52279 -0.375592S3.85953 0 4.04085 0H5.94471C6.12603 0 6.46276 0 6.46276 -0.375592S6.12603 -0.751183 5.94471 -0.751183H5.4137V-3.79477Z' id='g0-110'/>
<path d='M2.79751 -4.83088H4.89564C5.07696 -4.83088 5.4137 -4.83088 5.4137 -5.20648S5.07696 -5.58207 4.89564 -5.58207H2.79751V-6.64408C2.79751 -6.87721 2.79751 -7.17509 2.38306 -7.17509C1.95567 -7.17509 1.95567 -6.87721 1.95567 -6.64408V-5.58207H0.854795C0.673474 -5.58207 0.323786 -5.58207 0.323786 -5.20648S0.660523 -4.83088 0.841843 -4.83088H1.95567V-1.56712C1.95567 -0.36264 2.78456 0.0777086 3.71706 0.0777086C4.41644 0.0777086 5.69863 -0.27198 5.69863 -1.59303C5.69863 -1.85205 5.69863 -2.13699 5.27123 -2.13699C4.85679 -2.13699 4.85679 -1.85205 4.85679 -1.58007C4.84384 -0.802989 4.1056 -0.673474 3.80772 -0.673474C2.79751 -0.673474 2.79751 -1.32105 2.79751 -1.63188V-4.83088Z' id='g0-116'/>
<path d='M7.09738 -2.97883C7.31756 -2.97883 7.55068 -2.97883 7.55068 -3.23786S7.31756 -3.49689 7.09738 -3.49689H1.60598C1.76139 -5.23238 3.25081 -6.47572 5.07696 -6.47572H7.09738C7.31756 -6.47572 7.55068 -6.47572 7.55068 -6.73474S7.31756 -6.99377 7.09738 -6.99377H5.05106C2.83636 -6.99377 1.07497 -5.31009 1.07497 -3.23786S2.83636 0.518057 5.05106 0.518057H7.09738C7.31756 0.518057 7.55068 0.518057 7.55068 0.259029S7.31756 0 7.09738 0H5.07696C3.25081 0 1.76139 -1.24334 1.60598 -2.97883H7.09738Z' id='g3-50'/>
<path d='M7.97808 -8.28892C8.08169 -8.44433 8.08169 -8.50909 8.08169 -8.59975C8.08169 -8.88468 7.97808 -8.88468 7.7061 -8.88468H1.15268L1.01021 -5.81519H1.55417C1.65778 -7.6543 2.64209 -8.32777 4.32578 -8.32777H6.08717L0.9066 -0.621669C0.802989 -0.466252 0.802989 -0.414446 0.802989 -0.297883C0.802989 0 0.893649 0 1.17858 0H7.93923L8.1594 -3.61345H7.61544C7.51183 -2.09813 7.26575 -0.595766 4.68842 -0.595766H2.79751L7.97808 -8.28892Z' id='g1-90'/>
<path d='M5.73875 -4.11595C5.83848 -4.21567 5.86568 -4.261 5.86568 -4.32446C5.86568 -4.44232 5.77502 -4.52392 5.67529 -4.52392C5.60277 -4.52392 5.5937 -4.50578 5.48491 -4.40606L3.61732 -2.54754L1.66814 -4.48765C1.62281 -4.52392 1.57748 -4.52392 1.56841 -4.52392C1.45962 -4.52392 1.36896 -4.43326 1.36896 -4.32446C1.36896 -4.25194 1.40522 -4.21567 1.50495 -4.11595L3.34534 -2.27556L1.50495 -0.435166C1.37803 -0.308243 1.36896 -0.262913 1.36896 -0.217583C1.36896 -0.108792 1.45962 -0.0181319 1.56841 -0.0181319C1.57748 -0.0181319 1.62281 -0.0181319 1.66814 -0.0453298L3.61732 -1.99451L5.51211 -0.108792C5.5665 -0.0543958 5.5937 -0.0181319 5.67529 -0.0181319C5.77502 -0.0181319 5.86568 -0.0997256 5.86568 -0.217583C5.86568 -0.253847 5.84755 -0.308243 5.82035 -0.326375C5.80222 -0.362639 4.19754 -1.96731 3.8893 -2.26649L5.73875 -4.11595Z' id='g2-2'/>
<path d='M4.2882 -2.90111C4.2882 -3.50853 4.261 -4.2882 3.94369 -4.96815C3.54479 -5.82035 2.85578 -6.03793 2.32995 -6.03793C1.78599 -6.03793 1.09698 -5.82035 0.698079 -4.95002C0.407968 -4.32446 0.362639 -3.59012 0.362639 -2.90111C0.362639 -2.31182 0.38077 -1.43242 0.770607 -0.716211C1.19671 0.0543958 1.90385 0.199451 2.32089 0.199451C2.91017 0.199451 3.58106 -0.0543958 3.96183 -0.888464C4.2338 -1.49588 4.2882 -2.17583 4.2882 -2.90111ZM2.32995 -0.0271979C2.05797 -0.0271979 1.40522 -0.154121 1.23297 -1.17858C1.14231 -1.71347 1.14231 -2.49314 1.14231 -3.0099C1.14231 -3.62639 1.14231 -4.3426 1.2511 -4.84122C1.43242 -5.64809 2.01264 -5.81128 2.32089 -5.81128C2.66539 -5.81128 3.23655 -5.62996 3.4088 -4.78683C3.50853 -4.2882 3.50853 -3.58106 3.50853 -3.0099C3.50853 -2.44781 3.50853 -1.68627 3.41787 -1.15138C3.22748 -0.117858 2.5566 -0.0271979 2.32995 -0.0271979Z' id='g4-48'/>
<path d='M2.75605 -5.79315C2.75605 -6.0198 2.74699 -6.03793 2.52034 -6.03793C1.95825 -5.45771 1.12418 -5.45771 0.843135 -5.45771V-5.17666C1.01539 -5.17666 1.56841 -5.17666 2.05797 -5.41238V-0.725277C2.05797 -0.389836 2.03078 -0.281045 1.18764 -0.281045H0.89753V0C1.22391 -0.0271979 2.03078 -0.0271979 2.40248 -0.0271979S3.59012 -0.0271979 3.9165 0V-0.281045H3.62639C2.78325 -0.281045 2.75605 -0.389836 2.75605 -0.725277V-5.79315Z' id='g4-49'/>
<path d='M0.94286 -3.12776C0.94286 -2.96457 0.94286 -2.86484 1.06978 -2.86484C1.14231 -2.86484 1.16951 -2.90111 1.22391 -2.9827C1.49588 -3.36347 1.93105 -3.58106 2.40248 -3.58106C3.37254 -3.58106 3.37254 -2.1849 3.37254 -1.85852C3.37254 -1.57748 3.37254 -1.01539 3.11869 -0.60742C2.87391 -0.226649 2.49314 -0.0543958 2.13957 -0.0543958C1.60468 -0.0543958 0.997256 -0.389836 0.779673 -1.06072C0.788739 -1.06072 0.843135 -1.04259 0.906596 -1.04259C1.08792 -1.04259 1.35083 -1.16044 1.35083 -1.48682C1.35083 -1.76786 1.15138 -1.93105 0.906596 -1.93105C0.716211 -1.93105 0.462364 -1.82226 0.462364 -1.45962C0.462364 -0.634617 1.15138 0.199451 2.1577 0.199451C3.25468 0.199451 4.18847 -0.689013 4.18847 -1.81319C4.18847 -2.91017 3.4088 -3.8077 2.42061 -3.8077C1.98545 -3.8077 1.54121 -3.66265 1.22391 -3.33627V-5.12227C1.49588 -5.04068 1.77693 -4.99535 2.05797 -4.99535C3.17309 -4.99535 3.82584 -5.80222 3.82584 -5.92007C3.82584 -6.00167 3.77144 -6.03793 3.72611 -6.03793C3.70798 -6.03793 3.68985 -6.03793 3.60825 -5.9926C3.18215 -5.82035 2.76512 -5.74782 2.38435 -5.74782C1.99451 -5.74782 1.58654 -5.82035 1.16951 -5.9926C1.07885 -6.03793 1.06072 -6.03793 1.05165 -6.03793C0.94286 -6.03793 0.94286 -5.94727 0.94286 -5.79315V-3.12776Z' id='g4-53'/>
</defs>
<g id='page1'>
<use x='64.8676' xlink:href='#g0-77' y='65.7534'/>
<use x='71.5322' xlink:href='#g0-105' y='65.7534'/>
<use x='78.1968' xlink:href='#g0-110' y='65.7534'/>
<use x='84.8614' xlink:href='#g0-116' y='65.7534'/>
<use x='95.1235' xlink:href='#g3-50' y='65.7534'/>
<use x='107.355' xlink:href='#g1-90' y='65.7534'/>
<use x='116.26' xlink:href='#g4-53' y='60.4059'/>
<use x='120.918' xlink:href='#g2-2' y='60.4059'/>
<use x='128.165' xlink:href='#g4-49' y='60.4059'/>
<use x='132.824' xlink:href='#g4-48' y='60.4059'/>
</g>
</svg>